%!PS-Adobe-3.0 EPSF-3.0
%%Creator: (MATLAB, The Mathworks, Inc. Version 8.6.0.267246 \(R2015b\). Operating System: Mac OS X)
%%Title: (/Users/elvinisufi/Dropbox/Mario Coutigno/graphSubSampling/figures/lowPass_results1.eps)
%%CreationDate: 2017-06-12T18:12:11
%%Pages: (atend)
%%BoundingBox: 0 0 560 420
%%LanguageLevel: 2
%%EndComments
%%BeginProlog
%%BeginResource: procset (Apache XML Graphics Std ProcSet) 1.2 0
%%Version: 1.2 0
%%Copyright: (Copyright 2001-2003,2010 The Apache Software Foundation. License terms: http://www.apache.org/licenses/LICENSE-2.0)
/bd{bind def}bind def
/ld{load def}bd
/GR/grestore ld
/M/moveto ld
/LJ/setlinejoin ld
/C/curveto ld
/f/fill ld
/LW/setlinewidth ld
/GC/setgray ld
/t/show ld
/N/newpath ld
/CT/concat ld
/cp/closepath ld
/S/stroke ld
/L/lineto ld
/CC/setcmykcolor ld
/A/ashow ld
/GS/gsave ld
/RC/setrgbcolor ld
/RM/rmoveto ld
/ML/setmiterlimit ld
/re {4 2 roll M
1 index 0 rlineto
0 exch rlineto
neg 0 rlineto
cp } bd
/_ctm matrix def
/_tm matrix def
/BT { _ctm currentmatrix pop matrix _tm copy pop 0 0 moveto } bd
/ET { _ctm setmatrix } bd
/iTm { _ctm setmatrix _tm concat } bd
/Tm { _tm astore pop iTm 0 0 moveto } bd
/ux 0.0 def
/uy 0.0 def
/F {
  /Tp exch def
  /Tf exch def
  Tf findfont Tp scalefont setfont
  /cf Tf def  /cs Tp def
} bd
/ULS {currentpoint /uy exch def /ux exch def} bd
/ULE {
  /Tcx currentpoint pop def
  gsave
  newpath
  cf findfont cs scalefont dup
  /FontMatrix get 0 get /Ts exch def /FontInfo get dup
  /UnderlinePosition get Ts mul /To exch def
  /UnderlineThickness get Ts mul /Tt exch def
  ux uy To add moveto  Tcx uy To add lineto
  Tt setlinewidth stroke
  grestore
} bd
/OLE {
  /Tcx currentpoint pop def
  gsave
  newpath
  cf findfont cs scalefont dup
  /FontMatrix get 0 get /Ts exch def /FontInfo get dup
  /UnderlinePosition get Ts mul /To exch def
  /UnderlineThickness get Ts mul /Tt exch def
  ux uy To add cs add moveto Tcx uy To add cs add lineto
  Tt setlinewidth stroke
  grestore
} bd
/SOE {
  /Tcx currentpoint pop def
  gsave
  newpath
  cf findfont cs scalefont dup
  /FontMatrix get 0 get /Ts exch def /FontInfo get dup
  /UnderlinePosition get Ts mul /To exch def
  /UnderlineThickness get Ts mul /Tt exch def
  ux uy To add cs 10 mul 26 idiv add moveto Tcx uy To add cs 10 mul 26 idiv add lineto
  Tt setlinewidth stroke
  grestore
} bd
/QT {
/Y22 exch store
/X22 exch store
/Y21 exch store
/X21 exch store
currentpoint
/Y21 load 2 mul add 3 div exch
/X21 load 2 mul add 3 div exch
/X21 load 2 mul /X22 load add 3 div
/Y21 load 2 mul /Y22 load add 3 div
/X22 load /Y22 load curveto
} bd
/SSPD {
dup length /d exch dict def
{
/v exch def
/k exch def
currentpagedevice k known {
/cpdv currentpagedevice k get def
v cpdv ne {
/upd false def
/nullv v type /nulltype eq def
/nullcpdv cpdv type /nulltype eq def
nullv nullcpdv or
{
/upd true def
} {
/sametype v type cpdv type eq def
sametype {
v type /arraytype eq {
/vlen v length def
/cpdvlen cpdv length def
vlen cpdvlen eq {
0 1 vlen 1 sub {
/i exch def
/obj v i get def
/cpdobj cpdv i get def
obj cpdobj ne {
/upd true def
exit
} if
} for
} {
/upd true def
} ifelse
} {
v type /dicttype eq {
v {
/dv exch def
/dk exch def
/cpddv cpdv dk get def
dv cpddv ne {
/upd true def
exit
} if
} forall
} {
/upd true def
} ifelse
} ifelse
} if
} ifelse
upd true eq {
d k v put
} if
} if
} if
} forall
d length 0 gt {
d setpagedevice
} if
} bd
%%EndResource
%%BeginResource: procset (Apache XML Graphics EPS ProcSet) 1.0 0
%%Version: 1.0 0
%%Copyright: (Copyright 2002-2003 The Apache Software Foundation. License terms: http://www.apache.org/licenses/LICENSE-2.0)
/BeginEPSF { %def
/b4_Inc_state save def         % Save state for cleanup
/dict_count countdictstack def % Count objects on dict stack
/op_count count 1 sub def      % Count objects on operand stack
userdict begin                 % Push userdict on dict stack
/showpage { } def              % Redefine showpage, { } = null proc
0 setgray 0 setlinecap         % Prepare graphics state
1 setlinewidth 0 setlinejoin
10 setmiterlimit [ ] 0 setdash newpath
/languagelevel where           % If level not equal to 1 then
{pop languagelevel             % set strokeadjust and
1 ne                           % overprint to their defaults.
{false setstrokeadjust false setoverprint
} if
} if
} bd
/EndEPSF { %def
count op_count sub {pop} repeat            % Clean up stacks
countdictstack dict_count sub {end} repeat
b4_Inc_state restore
} bd
%%EndResource
%FOPBeginFontDict
%%IncludeResource: font Courier-Bold
%%IncludeResource: font Helvetica
%%IncludeResource: font Courier-BoldOblique
%%IncludeResource: font Courier-Oblique
%%IncludeResource: font Times-Roman
%%IncludeResource: font Helvetica-BoldOblique
%%IncludeResource: font Helvetica-Bold
%%IncludeResource: font Helvetica-Oblique
%%IncludeResource: font Times-BoldItalic
%%IncludeResource: font Courier
%%IncludeResource: font Times-Italic
%%IncludeResource: font Times-Bold
%%IncludeResource: font Symbol
%%IncludeResource: font ZapfDingbats
%FOPEndFontDict
%%BeginResource: encoding WinAnsiEncoding
/WinAnsiEncoding [
/.notdef /.notdef /.notdef /.notdef /.notdef
/.notdef /.notdef /.notdef /.notdef /.notdef
/.notdef /.notdef /.notdef /.notdef /.notdef
/.notdef /.notdef /.notdef /.notdef /.notdef
/.notdef /.notdef /.notdef /.notdef /.notdef
/.notdef /.notdef /.notdef /.notdef /.notdef
/.notdef /.notdef /space /exclam /quotedbl
/numbersign /dollar /percent /ampersand /quotesingle
/parenleft /parenright /asterisk /plus /comma
/hyphen /period /slash /zero /one
/two /three /four /five /six
/seven /eight /nine /colon /semicolon
/less /equal /greater /question /at
/A /B /C /D /E
/F /G /H /I /J
/K /L /M /N /O
/P /Q /R /S /T
/U /V /W /X /Y
/Z /bracketleft /backslash /bracketright /asciicircum
/underscore /quoteleft /a /b /c
/d /e /f /g /h
/i /j /k /l /m
/n /o /p /q /r
/s /t /u /v /w
/x /y /z /braceleft /bar
/braceright /asciitilde /bullet /Euro /bullet
/quotesinglbase /florin /quotedblbase /ellipsis /dagger
/daggerdbl /circumflex /perthousand /Scaron /guilsinglleft
/OE /bullet /Zcaron /bullet /bullet
/quoteleft /quoteright /quotedblleft /quotedblright /bullet
/endash /emdash /asciitilde /trademark /scaron
/guilsinglright /oe /bullet /zcaron /Ydieresis
/space /exclamdown /cent /sterling /currency
/yen /brokenbar /section /dieresis /copyright
/ordfeminine /guillemotleft /logicalnot /sfthyphen /registered
/macron /degree /plusminus /twosuperior /threesuperior
/acute /mu /paragraph /middot /cedilla
/onesuperior /ordmasculine /guillemotright /onequarter /onehalf
/threequarters /questiondown /Agrave /Aacute /Acircumflex
/Atilde /Adieresis /Aring /AE /Ccedilla
/Egrave /Eacute /Ecircumflex /Edieresis /Igrave
/Iacute /Icircumflex /Idieresis /Eth /Ntilde
/Ograve /Oacute /Ocircumflex /Otilde /Odieresis
/multiply /Oslash /Ugrave /Uacute /Ucircumflex
/Udieresis /Yacute /Thorn /germandbls /agrave
/aacute /acircumflex /atilde /adieresis /aring
/ae /ccedilla /egrave /eacute /ecircumflex
/edieresis /igrave /iacute /icircumflex /idieresis
/eth /ntilde /ograve /oacute /ocircumflex
/otilde /odieresis /divide /oslash /ugrave
/uacute /ucircumflex /udieresis /yacute /thorn
/ydieresis
] def
%%EndResource
%FOPBeginFontReencode
/Courier-Bold findfont
dup length dict begin
  {1 index /FID ne {def} {pop pop} ifelse} forall
  /Encoding WinAnsiEncoding def
  currentdict
end
/Courier-Bold exch definefont pop
/Helvetica findfont
dup length dict begin
  {1 index /FID ne {def} {pop pop} ifelse} forall
  /Encoding WinAnsiEncoding def
  currentdict
end
/Helvetica exch definefont pop
/Courier-BoldOblique findfont
dup length dict begin
  {1 index /FID ne {def} {pop pop} ifelse} forall
  /Encoding WinAnsiEncoding def
  currentdict
end
/Courier-BoldOblique exch definefont pop
/Courier-Oblique findfont
dup length dict begin
  {1 index /FID ne {def} {pop pop} ifelse} forall
  /Encoding WinAnsiEncoding def
  currentdict
end
/Courier-Oblique exch definefont pop
/Times-Roman findfont
dup length dict begin
  {1 index /FID ne {def} {pop pop} ifelse} forall
  /Encoding WinAnsiEncoding def
  currentdict
end
/Times-Roman exch definefont pop
/Helvetica-BoldOblique findfont
dup length dict begin
  {1 index /FID ne {def} {pop pop} ifelse} forall
  /Encoding WinAnsiEncoding def
  currentdict
end
/Helvetica-BoldOblique exch definefont pop
/Helvetica-Bold findfont
dup length dict begin
  {1 index /FID ne {def} {pop pop} ifelse} forall
  /Encoding WinAnsiEncoding def
  currentdict
end
/Helvetica-Bold exch definefont pop
/Helvetica-Oblique findfont
dup length dict begin
  {1 index /FID ne {def} {pop pop} ifelse} forall
  /Encoding WinAnsiEncoding def
  currentdict
end
/Helvetica-Oblique exch definefont pop
/Times-BoldItalic findfont
dup length dict begin
  {1 index /FID ne {def} {pop pop} ifelse} forall
  /Encoding WinAnsiEncoding def
  currentdict
end
/Times-BoldItalic exch definefont pop
/Courier findfont
dup length dict begin
  {1 index /FID ne {def} {pop pop} ifelse} forall
  /Encoding WinAnsiEncoding def
  currentdict
end
/Courier exch definefont pop
/Times-Italic findfont
dup length dict begin
  {1 index /FID ne {def} {pop pop} ifelse} forall
  /Encoding WinAnsiEncoding def
  currentdict
end
/Times-Italic exch definefont pop
/Times-Bold findfont
dup length dict begin
  {1 index /FID ne {def} {pop pop} ifelse} forall
  /Encoding WinAnsiEncoding def
  currentdict
end
/Times-Bold exch definefont pop
%FOPEndFontReencode
%%EndProlog
%%Page: 1 1
%%PageBoundingBox: 0 0 560 420
%%BeginPageSetup
[1 0 0 -1 0 420] CT
%%EndPageSetup
GS
1 GC
N
0 0 560 420 re
f
GR
GS
1 GC
N
0 0 560 420 re
f
GR
GS
1 GC
N
73 374 M
507 374 L
507 31.5 L
73 31.5 L
cp
f
GR
GS
0.149 GC
2 setlinecap
1 LJ
0.5 LW
N
73 374 M
507 374 L
S
GR
GS
0.149 GC
2 setlinecap
1 LJ
0.5 LW
N
73 31.5 M
507 31.5 L
S
GR
GS
0.149 GC
2 setlinecap
1 LJ
0.5 LW
N
73 374 M
73 369.66 L
S
GR
GS
0.149 GC
2 setlinecap
1 LJ
0.5 LW
N
135 374 M
135 369.66 L
S
GR
GS
0.149 GC
2 setlinecap
1 LJ
0.5 LW
N
197 374 M
197 369.66 L
S
GR
GS
0.149 GC
2 setlinecap
1 LJ
0.5 LW
N
259 374 M
259 369.66 L
S
GR
GS
0.149 GC
2 setlinecap
1 LJ
0.5 LW
N
321 374 M
321 369.66 L
S
GR
GS
0.149 GC
2 setlinecap
1 LJ
0.5 LW
N
383 374 M
383 369.66 L
S
GR
GS
0.149 GC
2 setlinecap
1 LJ
0.5 LW
N
445 374 M
445 369.66 L
S
GR
GS
0.149 GC
2 setlinecap
1 LJ
0.5 LW
N
507 374 M
507 369.66 L
S
GR
GS
0.149 GC
2 setlinecap
1 LJ
0.5 LW
N
73 31.5 M
73 35.84 L
S
GR
GS
0.149 GC
2 setlinecap
1 LJ
0.5 LW
N
135 31.5 M
135 35.84 L
S
GR
GS
0.149 GC
2 setlinecap
1 LJ
0.5 LW
N
197 31.5 M
197 35.84 L
S
GR
GS
0.149 GC
2 setlinecap
1 LJ
0.5 LW
N
259 31.5 M
259 35.84 L
S
GR
GS
0.149 GC
2 setlinecap
1 LJ
0.5 LW
N
321 31.5 M
321 35.84 L
S
GR
GS
0.149 GC
2 setlinecap
1 LJ
0.5 LW
N
383 31.5 M
383 35.84 L
S
GR
GS
0.149 GC
2 setlinecap
1 LJ
0.5 LW
N
445 31.5 M
445 35.84 L
S
GR
GS
0.149 GC
2 setlinecap
1 LJ
0.5 LW
N
507 31.5 M
507 35.84 L
S
GR
GS
[1 0 0 1 73 379.20001] CT
0.149 GC
/Helvetica 16 F
GS
[1 0 0 1 0 0] CT
-4.5 13 moveto 
1 -1 scale
(0) t 
GR
GR
GS
[1 0 0 1 135 379.20001] CT
0.149 GC
/Helvetica 16 F
GS
[1 0 0 1 0 0] CT
-11.5 13 moveto 
1 -1 scale
(0.2) t 
GR
GR
GS
[1 0 0 1 197 379.20001] CT
0.149 GC
/Helvetica 16 F
GS
[1 0 0 1 0 0] CT
-11.5 13 moveto 
1 -1 scale
(0.4) t 
GR
GR
GS
[1 0 0 1 259 379.20001] CT
0.149 GC
/Helvetica 16 F
GS
[1 0 0 1 0 0] CT
-11.5 13 moveto 
1 -1 scale
(0.6) t 
GR
GR
GS
[1 0 0 1 321 379.20001] CT
0.149 GC
/Helvetica 16 F
GS
[1 0 0 1 0 0] CT
-11.5 13 moveto 
1 -1 scale
(0.8) t 
GR
GR
GS
[1 0 0 1 383 379.20001] CT
0.149 GC
/Helvetica 16 F
GS
[1 0 0 1 0 0] CT
-4.5 13 moveto 
1 -1 scale
(1) t 
GR
GR
GS
[1 0 0 1 445 379.20001] CT
0.149 GC
/Helvetica 16 F
GS
[1 0 0 1 0 0] CT
-11.5 13 moveto 
1 -1 scale
(1.2) t 
GR
GR
GS
[1 0 0 1 507 379.20001] CT
0.149 GC
/Helvetica 16 F
GS
[1 0 0 1 0 0] CT
-11.5 13 moveto 
1 -1 scale
(1.4) t 
GR
GR
GS
[1 0 0 1 290.00021 396.70001] CT
0.149 GC
/Helvetica 18 F
GS
[1 0 0 1 0 0] CT
-49.5 14 moveto 
1 -1 scale
(Eigenvalues) t 
GR
GR
GS
0.149 GC
2 setlinecap
1 LJ
0.5 LW
N
73 374 M
73 31.5 L
S
GR
GS
0.149 GC
2 setlinecap
1 LJ
0.5 LW
N
507 374 M
507 31.5 L
S
GR
GS
0.149 GC
2 setlinecap
1 LJ
0.5 LW
N
73 345.458 M
77.34 345.458 L
S
GR
GS
0.149 GC
2 setlinecap
1 LJ
0.5 LW
N
73 288.375 M
77.34 288.375 L
S
GR
GS
0.149 GC
2 setlinecap
1 LJ
0.5 LW
N
73 231.292 M
77.34 231.292 L
S
GR
GS
0.149 GC
2 setlinecap
1 LJ
0.5 LW
N
73 174.208 M
77.34 174.208 L
S
GR
GS
0.149 GC
2 setlinecap
1 LJ
0.5 LW
N
73 117.125 M
77.34 117.125 L
S
GR
GS
0.149 GC
2 setlinecap
1 LJ
0.5 LW
N
73 60.042 M
77.34 60.042 L
S
GR
GS
0.149 GC
2 setlinecap
1 LJ
0.5 LW
N
507 345.458 M
502.66 345.458 L
S
GR
GS
0.149 GC
2 setlinecap
1 LJ
0.5 LW
N
507 288.375 M
502.66 288.375 L
S
GR
GS
0.149 GC
2 setlinecap
1 LJ
0.5 LW
N
507 231.292 M
502.66 231.292 L
S
GR
GS
0.149 GC
2 setlinecap
1 LJ
0.5 LW
N
507 174.208 M
502.66 174.208 L
S
GR
GS
0.149 GC
2 setlinecap
1 LJ
0.5 LW
N
507 117.125 M
502.66 117.125 L
S
GR
GS
0.149 GC
2 setlinecap
1 LJ
0.5 LW
N
507 60.042 M
502.66 60.042 L
S
GR
GS
[1 0 0 1 67.8 345.45834] CT
0.149 GC
/Helvetica 16 F
GS
[1 0 0 1 0 0] CT
-9 4.5 moveto 
1 -1 scale
(0) t 
GR
GR
GS
[1 0 0 1 67.8 288.375] CT
0.149 GC
/Helvetica 16 F
GS
[1 0 0 1 0 0] CT
-23 4.5 moveto 
1 -1 scale
(0.2) t 
GR
GR
GS
[1 0 0 1 67.8 231.29167] CT
0.149 GC
/Helvetica 16 F
GS
[1 0 0 1 0 0] CT
-23 4.5 moveto 
1 -1 scale
(0.4) t 
GR
GR
GS
[1 0 0 1 67.8 174.20833] CT
0.149 GC
/Helvetica 16 F
GS
[1 0 0 1 0 0] CT
-23 4.5 moveto 
1 -1 scale
(0.6) t 
GR
GR
GS
[1 0 0 1 67.8 117.125] CT
0.149 GC
/Helvetica 16 F
GS
[1 0 0 1 0 0] CT
-23 4.5 moveto 
1 -1 scale
(0.8) t 
GR
GR
GS
[1 0 0 1 67.8 60.04167] CT
0.149 GC
/Helvetica 16 F
GS
[1 0 0 1 0 0] CT
-9 4.5 moveto 
1 -1 scale
(1) t 
GR
GR
GS
[0 -1 1 0 42.3 202.74983] CT
0.149 GC
/Helvetica 18 F
GS
[1 0 0 1 0 0] CT
-4.5 -5 moveto 
1 -1 scale
(y) t 
GR
GR
GS
1 LJ
2 LW
N
73 60.042 M
83.551 60.042 L
85.803 60.042 L
86.668 60.042 L
89.142 60.042 L
92.388 60.042 L
94.496 60.042 L
103.543 60.042 L
130.657 60.042 L
163.423 60.042 L
176.999 60.042 L
183.012 60.042 L
183.939 60.042 L
196.863 60.042 L
203.919 60.042 L
225.396 60.042 L
229.078 60.042 L
238.155 60.042 L
240.159 60.042 L
252.72 60.042 L
266.161 60.042 L
280.26 60.042 L
293.079 60.042 L
300.096 60.042 L
311.551 60.042 L
316.414 60.042 L
320.867 60.042 L
323.771 60.042 L
327.667 60.042 L
331.551 60.042 L
332.422 60.042 L
342.296 60.042 L
345.639 60.042 L
349.345 60.042 L
350.831 60.042 L
351.679 60.042 L
353.872 60.042 L
353.953 60.042 L
355.577 60.042 L
357.149 60.042 L
358.058 60.042 L
359.906 60.042 L
361.135 60.042 L
361.493 60.042 L
363.183 60.042 L
364.028 60.042 L
364.133 60.042 L
365.351 60.042 L
365.478 60.042 L
366.407 60.042 L
S
GR
GS
1 LJ
2 LW
N
365.478 60.042 M
366.407 60.042 L
367.635 60.042 L
368.066 60.042 L
368.537 60.042 L
369.364 60.042 L
369.988 60.042 L
370.609 60.042 L
370.764 60.042 L
371.588 60.042 L
371.819 60.042 L
372.006 60.042 L
372.939 60.042 L
373.666 60.042 L
374.026 60.042 L
374.688 60.042 L
375.248 60.042 L
376.078 60.042 L
376.123 60.042 L
376.61 60.042 L
377.386 60.042 L
378.12 60.042 L
378.578 60.042 L
378.993 60.042 L
379.091 60.042 L
379.65 60.042 L
380.096 60.042 L
380.58 60.042 L
381.042 60.042 L
381.172 60.042 L
382.099 60.042 L
382.629 60.042 L
382.983 60.042 L
383.095 345.458 L
383.847 345.458 L
384.015 345.458 L
384.333 345.458 L
384.631 345.458 L
385.404 345.458 L
385.684 345.458 L
386.798 345.458 L
387.146 345.458 L
387.453 345.458 L
387.978 345.458 L
388.204 345.458 L
388.473 345.458 L
389.37 345.458 L
389.586 345.458 L
389.889 345.458 L
390.488 345.458 L
390.806 345.458 L
391.063 345.458 L
S
GR
GS
1 LJ
2 LW
N
390.806 345.458 M
391.063 345.458 L
391.337 345.458 L
391.667 345.458 L
392.069 345.458 L
392.254 345.458 L
392.676 345.458 L
393.382 345.458 L
393.845 345.458 L
394.255 345.458 L
394.379 345.458 L
394.57 345.458 L
395.282 345.458 L
395.563 345.458 L
395.645 345.458 L
395.938 345.458 L
396.275 345.458 L
396.884 345.458 L
397.083 345.458 L
397.268 345.458 L
397.754 345.458 L
397.984 345.458 L
398.444 345.458 L
398.749 345.458 L
399.172 345.458 L
399.458 345.458 L
399.793 345.458 L
400.222 345.458 L
400.334 345.458 L
400.493 345.458 L
400.798 345.458 L
400.923 345.458 L
401.184 345.458 L
401.235 345.458 L
401.598 345.458 L
401.837 345.458 L
401.996 345.458 L
402.441 345.458 L
402.633 345.458 L
402.771 345.458 L
403.33 345.458 L
403.667 345.458 L
403.667 345.458 L
403.667 345.458 L
403.718 345.458 L
404.124 345.458 L
404.425 345.458 L
404.856 345.458 L
404.951 345.458 L
405.143 345.458 L
405.166 345.458 L
405.469 345.458 L
S
GR
GS
1 LJ
2 LW
N
405.166 345.458 M
405.469 345.458 L
405.875 345.458 L
406.138 345.458 L
406.532 345.458 L
406.813 345.458 L
406.846 345.458 L
407.186 345.458 L
407.893 345.458 L
408.41 345.458 L
408.736 345.458 L
409.238 345.458 L
409.359 345.458 L
410.01 345.458 L
410.357 345.458 L
410.443 345.458 L
411.064 345.458 L
411.308 345.458 L
411.695 345.458 L
412.297 345.458 L
412.588 345.458 L
413.05 345.458 L
413.169 345.458 L
413.473 345.458 L
413.843 345.458 L
414.407 345.458 L
415.045 345.458 L
415.427 345.458 L
415.57 345.458 L
416.206 345.458 L
416.497 345.458 L
417.051 345.458 L
417.787 345.458 L
418.357 345.458 L
418.567 345.458 L
418.926 345.458 L
419.366 345.458 L
419.448 345.458 L
420.036 345.458 L
420.104 345.458 L
420.846 345.458 L
421.01 345.458 L
421.815 345.458 L
422.045 345.458 L
422.466 345.458 L
423.319 345.458 L
423.965 345.458 L
424.479 345.458 L
425.094 345.458 L
425.314 345.458 L
425.727 345.458 L
426.218 345.458 L
S
GR
GS
1 LJ
2 LW
N
425.727 345.458 M
426.218 345.458 L
426.563 345.458 L
427.33 345.458 L
427.981 345.458 L
428.868 345.458 L
429.058 345.458 L
429.53 345.458 L
430.297 345.458 L
430.505 345.458 L
431.141 345.458 L
431.373 345.458 L
431.721 345.458 L
432.23 345.458 L
432.857 345.458 L
433.816 345.458 L
434.19 345.458 L
434.723 345.458 L
435.487 345.458 L
436.185 345.458 L
437.042 345.458 L
437.723 345.458 L
438.593 345.458 L
438.686 345.458 L
439.583 345.458 L
440.313 345.458 L
440.572 345.458 L
441.83 345.458 L
442.537 345.458 L
443.288 345.458 L
443.557 345.458 L
444.7 345.458 L
445.238 345.458 L
447.233 345.458 L
447.693 345.458 L
447.952 345.458 L
449.671 345.458 L
450.191 345.458 L
450.451 345.458 L
451.938 345.458 L
452.514 345.458 L
454.069 345.458 L
455.447 345.458 L
455.635 345.458 L
456.394 345.458 L
457.703 345.458 L
459.08 345.458 L
459.189 345.458 L
460.953 345.458 L
461.09 345.458 L
463.039 345.458 L
464.613 345.458 L
S
GR
GS
1 LJ
2 LW
N
463.039 345.458 M
464.613 345.458 L
466.701 345.458 L
467.22 345.458 L
470.14 345.458 L
471.131 345.458 L
475.181 345.458 L
494.77 345.458 L
S
GR
GS
1 0 1 RC
1 LJ
1.1 LW
N
73 90.482 M
83.551 57.797 L
85.803 67.204 L
86.668 66.272 L
89.142 61.641 L
92.388 61.904 L
94.496 58.374 L
103.543 50.291 L
130.657 57.094 L
163.423 68.506 L
176.999 66.373 L
183.012 60.542 L
183.939 59.267 L
196.863 53.889 L
203.919 53.87 L
225.396 66.668 L
229.078 63.284 L
238.155 67.674 L
240.159 66.608 L
252.72 56.142 L
266.161 51.993 L
280.26 53.82 L
293.079 73.078 L
300.096 71.367 L
311.551 74.944 L
316.414 70.905 L
320.867 63.711 L
323.771 53.185 L
327.667 51.338 L
331.551 42.566 L
332.422 43.147 L
342.296 31.522 L
345.639 34.776 L
349.345 35.591 L
350.831 42.552 L
351.679 42.487 L
353.872 45.235 L
353.953 47.336 L
355.577 50.155 L
357.149 56.293 L
358.058 57.336 L
359.906 63.706 L
361.135 69.025 L
361.493 70.691 L
363.183 76.734 L
364.028 81.778 L
364.133 83.146 L
365.351 89.886 L
365.478 89.154 L
366.407 93.741 L
S
GR
GS
1 0 1 RC
1 LJ
1.1 LW
N
365.478 89.154 M
366.407 93.741 L
367.635 100.79 L
368.066 103.634 L
368.537 105.691 L
369.364 109.782 L
369.988 114.078 L
370.609 118.703 L
370.764 121.125 L
371.588 122.957 L
371.819 128.035 L
372.006 127.97 L
372.939 132.773 L
373.666 137.912 L
374.026 141.88 L
374.688 146.692 L
375.248 148.979 L
376.078 156.021 L
376.123 155.859 L
376.61 158.406 L
377.386 163.144 L
378.12 168.177 L
378.578 171.485 L
378.993 175.824 L
379.091 175.965 L
379.65 179.194 L
380.096 182.08 L
380.58 185.869 L
381.042 189.683 L
381.172 190.992 L
382.099 193.224 L
382.629 200.373 L
382.983 201.991 L
383.095 204.887 L
383.847 208.614 L
384.015 209.678 L
384.333 215.445 L
384.631 214.556 L
385.404 221.27 L
385.684 222.487 L
386.798 230.494 L
387.146 231.882 L
387.453 234.279 L
387.978 238.883 L
388.204 240.622 L
388.473 241.275 L
389.37 249.405 L
389.586 248.847 L
389.889 251.735 L
390.488 257.255 L
390.806 260.189 L
391.063 260.006 L
S
GR
GS
1 0 1 RC
1 LJ
1.1 LW
N
390.806 260.189 M
391.063 260.006 L
391.337 259.577 L
391.667 262.726 L
392.069 265.794 L
392.254 267.232 L
392.676 270.619 L
393.382 275.322 L
393.845 278.148 L
394.255 281.031 L
394.379 280.224 L
394.57 282.063 L
395.282 286.926 L
395.563 288.922 L
395.645 289.444 L
395.938 288.95 L
396.275 292.83 L
396.884 296.695 L
397.083 296.927 L
397.268 298.7 L
397.754 300.254 L
397.984 302.036 L
398.444 302.866 L
398.749 307.596 L
399.172 309.323 L
399.458 309.892 L
399.793 311.319 L
400.222 314.938 L
400.334 316.219 L
400.493 315.959 L
400.798 318.053 L
400.923 318.877 L
401.184 320.362 L
401.235 319.977 L
401.598 321.9 L
401.837 323.223 L
401.996 323.785 L
402.441 325.311 L
402.633 324.951 L
402.771 327.034 L
403.33 331.594 L
403.667 331.295 L
403.667 331.371 L
403.667 331.285 L
403.718 331.961 L
404.124 334.395 L
404.425 335.732 L
404.856 334.762 L
404.951 335.633 L
405.143 337.592 L
405.166 338.416 L
405.469 337.547 L
S
GR
GS
1 0 1 RC
1 LJ
1.1 LW
N
405.166 338.416 M
405.469 337.547 L
405.875 340.7 L
406.138 341.766 L
406.532 344.277 L
406.813 342.752 L
406.846 344.117 L
407.186 345.965 L
407.893 345.566 L
408.41 347.34 L
408.736 352.618 L
409.238 354.266 L
409.359 354.099 L
410.01 354.417 L
410.357 354.016 L
410.443 354.944 L
411.064 356.224 L
411.308 358.585 L
411.695 360.081 L
412.297 358.858 L
412.588 358.491 L
413.05 363.778 L
413.169 361.58 L
413.473 361.502 L
413.843 361.275 L
414.407 363.403 L
415.045 365.751 L
415.427 366.407 L
415.57 366.285 L
416.206 366.244 L
416.497 366.112 L
417.051 370.863 L
417.787 367.89 L
418.357 368.594 L
418.567 368.171 L
418.926 371.205 L
419.366 370.942 L
419.448 370.967 L
420.036 370.928 L
420.104 371.646 L
420.846 371.421 L
421.01 373.054 L
421.815 371.237 L
422.045 371.588 L
422.466 370.924 L
423.319 372.4 L
423.965 371.069 L
424.479 371.513 L
425.094 370.045 L
425.314 371.859 L
425.727 371.943 L
426.218 370.404 L
S
GR
GS
1 0 1 RC
1 LJ
1.1 LW
N
425.727 371.943 M
426.218 370.404 L
426.563 368.905 L
427.33 368.934 L
427.981 370.769 L
428.868 368.704 L
429.058 369.366 L
429.53 367.149 L
430.297 365.214 L
430.505 367.802 L
431.141 366.629 L
431.373 366.501 L
431.721 364.34 L
432.23 363.572 L
432.857 361.578 L
433.816 362.584 L
434.19 362.361 L
434.723 362.876 L
435.487 359.15 L
436.185 357.445 L
437.042 356.902 L
437.723 354.15 L
438.593 355.158 L
438.686 355.753 L
439.583 353.34 L
440.313 351.316 L
440.572 351.428 L
441.83 352.82 L
442.537 349.382 L
443.288 348.05 L
443.557 346.114 L
444.7 345.091 L
445.238 343.717 L
447.233 343.114 L
447.693 343.127 L
447.952 337.423 L
449.671 338.403 L
450.191 338.651 L
450.451 335.153 L
451.938 333.283 L
452.514 335.611 L
454.069 334.099 L
455.447 331.954 L
455.635 332.838 L
456.394 330.784 L
457.703 332.812 L
459.08 330.626 L
459.189 333.696 L
460.953 334.036 L
461.09 331.728 L
463.039 331.588 L
464.613 330.638 L
S
GR
GS
1 0 1 RC
1 LJ
1.1 LW
N
463.039 331.588 M
464.613 330.638 L
466.701 332.917 L
467.22 334.176 L
470.14 338.668 L
471.131 334.941 L
475.181 341.992 L
494.77 351.746 L
S
GR
GS
1 0 1 RC
1 LJ
1.1 LW
N
70 90.5 M
77 90.5 L
S
GR
GS
1 0 1 RC
1 LJ
1.1 LW
N
73.5 94 M
73.5 87 L
S
GR
GS
1 0 1 RC
1 LJ
1.1 LW
N
80 57.5 M
87 57.5 L
S
GR
GS
1 0 1 RC
1 LJ
1.1 LW
N
83.5 61 M
83.5 54 L
S
GR
GS
1 0 1 RC
1 LJ
1.1 LW
N
82 67.5 M
89 67.5 L
S
GR
GS
1 0 1 RC
1 LJ
1.1 LW
N
85.5 71 M
85.5 64 L
S
GR
GS
1 0 1 RC
1 LJ
1.1 LW
N
83 66.5 M
90 66.5 L
S
GR
GS
1 0 1 RC
1 LJ
1.1 LW
N
86.5 70 M
86.5 63 L
S
GR
GS
1 0 1 RC
1 LJ
1.1 LW
N
86 61.5 M
93 61.5 L
S
GR
GS
1 0 1 RC
1 LJ
1.1 LW
N
89.5 65 M
89.5 58 L
S
GR
GS
1 0 1 RC
1 LJ
1.1 LW
N
89 61.5 M
96 61.5 L
S
GR
GS
1 0 1 RC
1 LJ
1.1 LW
N
92.5 65 M
92.5 58 L
S
GR
GS
1 0 1 RC
1 LJ
1.1 LW
N
91 58.5 M
98 58.5 L
S
GR
GS
1 0 1 RC
1 LJ
1.1 LW
N
94.5 62 M
94.5 55 L
S
GR
GS
1 0 1 RC
1 LJ
1.1 LW
N
100 50.5 M
107 50.5 L
S
GR
GS
1 0 1 RC
1 LJ
1.1 LW
N
103.5 54 M
103.5 47 L
S
GR
GS
1 0 1 RC
1 LJ
1.1 LW
N
127 57.5 M
134 57.5 L
S
GR
GS
1 0 1 RC
1 LJ
1.1 LW
N
130.5 61 M
130.5 54 L
S
GR
GS
1 0 1 RC
1 LJ
1.1 LW
N
160 68.5 M
167 68.5 L
S
GR
GS
1 0 1 RC
1 LJ
1.1 LW
N
163.5 72 M
163.5 65 L
S
GR
GS
1 0 1 RC
1 LJ
1.1 LW
N
173 66.5 M
180 66.5 L
S
GR
GS
1 0 1 RC
1 LJ
1.1 LW
N
176.5 70 M
176.5 63 L
S
GR
GS
1 0 1 RC
1 LJ
1.1 LW
N
180 60.5 M
187 60.5 L
S
GR
GS
1 0 1 RC
1 LJ
1.1 LW
N
183.5 64 M
183.5 57 L
S
GR
GS
1 0 1 RC
1 LJ
1.1 LW
N
180 59.5 M
187 59.5 L
S
GR
GS
1 0 1 RC
1 LJ
1.1 LW
N
183.5 63 M
183.5 56 L
S
GR
GS
1 0 1 RC
1 LJ
1.1 LW
N
193 53.5 M
200 53.5 L
S
GR
GS
1 0 1 RC
1 LJ
1.1 LW
N
196.5 57 M
196.5 50 L
S
GR
GS
1 0 1 RC
1 LJ
1.1 LW
N
200 53.5 M
207 53.5 L
S
GR
GS
1 0 1 RC
1 LJ
1.1 LW
N
203.5 57 M
203.5 50 L
S
GR
GS
1 0 1 RC
1 LJ
1.1 LW
N
222 66.5 M
229 66.5 L
S
GR
GS
1 0 1 RC
1 LJ
1.1 LW
N
225.5 70 M
225.5 63 L
S
GR
GS
1 0 1 RC
1 LJ
1.1 LW
N
226 63.5 M
233 63.5 L
S
GR
GS
1 0 1 RC
1 LJ
1.1 LW
N
229.5 67 M
229.5 60 L
S
GR
GS
1 0 1 RC
1 LJ
1.1 LW
N
235 67.5 M
242 67.5 L
S
GR
GS
1 0 1 RC
1 LJ
1.1 LW
N
238.5 71 M
238.5 64 L
S
GR
GS
1 0 1 RC
1 LJ
1.1 LW
N
237 66.5 M
244 66.5 L
S
GR
GS
1 0 1 RC
1 LJ
1.1 LW
N
240.5 70 M
240.5 63 L
S
GR
GS
1 0 1 RC
1 LJ
1.1 LW
N
249 56.5 M
256 56.5 L
S
GR
GS
1 0 1 RC
1 LJ
1.1 LW
N
252.5 60 M
252.5 53 L
S
GR
GS
1 0 1 RC
1 LJ
1.1 LW
N
263 51.5 M
270 51.5 L
S
GR
GS
1 0 1 RC
1 LJ
1.1 LW
N
266.5 55 M
266.5 48 L
S
GR
GS
1 0 1 RC
1 LJ
1.1 LW
N
277 53.5 M
284 53.5 L
S
GR
GS
1 0 1 RC
1 LJ
1.1 LW
N
280.5 57 M
280.5 50 L
S
GR
GS
1 0 1 RC
1 LJ
1.1 LW
N
290 73.5 M
297 73.5 L
S
GR
GS
1 0 1 RC
1 LJ
1.1 LW
N
293.5 77 M
293.5 70 L
S
GR
GS
1 0 1 RC
1 LJ
1.1 LW
N
297 71.5 M
304 71.5 L
S
GR
GS
1 0 1 RC
1 LJ
1.1 LW
N
300.5 75 M
300.5 68 L
S
GR
GS
1 0 1 RC
1 LJ
1.1 LW
N
308 74.5 M
315 74.5 L
S
GR
GS
1 0 1 RC
1 LJ
1.1 LW
N
311.5 78 M
311.5 71 L
S
GR
GS
1 0 1 RC
1 LJ
1.1 LW
N
313 70.5 M
320 70.5 L
S
GR
GS
1 0 1 RC
1 LJ
1.1 LW
N
316.5 74 M
316.5 67 L
S
GR
GS
1 0 1 RC
1 LJ
1.1 LW
N
317 63.5 M
324 63.5 L
S
GR
GS
1 0 1 RC
1 LJ
1.1 LW
N
320.5 67 M
320.5 60 L
S
GR
GS
1 0 1 RC
1 LJ
1.1 LW
N
320 53.5 M
327 53.5 L
S
GR
GS
1 0 1 RC
1 LJ
1.1 LW
N
323.5 57 M
323.5 50 L
S
GR
GS
1 0 1 RC
1 LJ
1.1 LW
N
324 51.5 M
331 51.5 L
S
GR
GS
1 0 1 RC
1 LJ
1.1 LW
N
327.5 55 M
327.5 48 L
S
GR
GS
1 0 1 RC
1 LJ
1.1 LW
N
328 42.5 M
335 42.5 L
S
GR
GS
1 0 1 RC
1 LJ
1.1 LW
N
331.5 46 M
331.5 39 L
S
GR
GS
1 0 1 RC
1 LJ
1.1 LW
N
329 43.5 M
336 43.5 L
S
GR
GS
1 0 1 RC
1 LJ
1.1 LW
N
332.5 47 M
332.5 40 L
S
GR
GS
1 0 1 RC
1 LJ
1.1 LW
N
339 31.5 M
346 31.5 L
S
GR
GS
1 0 1 RC
1 LJ
1.1 LW
N
342.5 35 M
342.5 28 L
S
GR
GS
1 0 1 RC
1 LJ
1.1 LW
N
342 34.5 M
349 34.5 L
S
GR
GS
1 0 1 RC
1 LJ
1.1 LW
N
345.5 38 M
345.5 31 L
S
GR
GS
1 0 1 RC
1 LJ
1.1 LW
N
346 35.5 M
353 35.5 L
S
GR
GS
1 0 1 RC
1 LJ
1.1 LW
N
349.5 39 M
349.5 32 L
S
GR
GS
1 0 1 RC
1 LJ
1.1 LW
N
347 42.5 M
354 42.5 L
S
GR
GS
1 0 1 RC
1 LJ
1.1 LW
N
350.5 46 M
350.5 39 L
S
GR
GS
1 0 1 RC
1 LJ
1.1 LW
N
348 42.5 M
355 42.5 L
S
GR
GS
1 0 1 RC
1 LJ
1.1 LW
N
351.5 46 M
351.5 39 L
S
GR
GS
1 0 1 RC
1 LJ
1.1 LW
N
350 45.5 M
357 45.5 L
S
GR
GS
1 0 1 RC
1 LJ
1.1 LW
N
353.5 49 M
353.5 42 L
S
GR
GS
1 0 1 RC
1 LJ
1.1 LW
N
350 47.5 M
357 47.5 L
S
GR
GS
1 0 1 RC
1 LJ
1.1 LW
N
353.5 51 M
353.5 44 L
S
GR
GS
1 0 1 RC
1 LJ
1.1 LW
N
352 50.5 M
359 50.5 L
S
GR
GS
1 0 1 RC
1 LJ
1.1 LW
N
355.5 54 M
355.5 47 L
S
GR
GS
1 0 1 RC
1 LJ
1.1 LW
N
354 56.5 M
361 56.5 L
S
GR
GS
1 0 1 RC
1 LJ
1.1 LW
N
357.5 60 M
357.5 53 L
S
GR
GS
1 0 1 RC
1 LJ
1.1 LW
N
355 57.5 M
362 57.5 L
S
GR
GS
1 0 1 RC
1 LJ
1.1 LW
N
358.5 61 M
358.5 54 L
S
GR
GS
1 0 1 RC
1 LJ
1.1 LW
N
356 63.5 M
363 63.5 L
S
GR
GS
1 0 1 RC
1 LJ
1.1 LW
N
359.5 67 M
359.5 60 L
S
GR
GS
1 0 1 RC
1 LJ
1.1 LW
N
358 69.5 M
365 69.5 L
S
GR
GS
1 0 1 RC
1 LJ
1.1 LW
N
361.5 73 M
361.5 66 L
S
GR
GS
1 0 1 RC
1 LJ
1.1 LW
N
358 70.5 M
365 70.5 L
S
GR
GS
1 0 1 RC
1 LJ
1.1 LW
N
361.5 74 M
361.5 67 L
S
GR
GS
1 0 1 RC
1 LJ
1.1 LW
N
360 76.5 M
367 76.5 L
S
GR
GS
1 0 1 RC
1 LJ
1.1 LW
N
363.5 80 M
363.5 73 L
S
GR
GS
1 0 1 RC
1 LJ
1.1 LW
N
361 81.5 M
368 81.5 L
S
GR
GS
1 0 1 RC
1 LJ
1.1 LW
N
364.5 85 M
364.5 78 L
S
GR
GS
1 0 1 RC
1 LJ
1.1 LW
N
361 83.5 M
368 83.5 L
S
GR
GS
1 0 1 RC
1 LJ
1.1 LW
N
364.5 87 M
364.5 80 L
S
GR
GS
1 0 1 RC
1 LJ
1.1 LW
N
362 89.5 M
369 89.5 L
S
GR
GS
1 0 1 RC
1 LJ
1.1 LW
N
365.5 93 M
365.5 86 L
S
GR
GS
1 0 1 RC
1 LJ
1.1 LW
N
362 89.5 M
369 89.5 L
S
GR
GS
1 0 1 RC
1 LJ
1.1 LW
N
365.5 93 M
365.5 86 L
S
GR
GS
1 0 1 RC
1 LJ
1.1 LW
N
363 93.5 M
370 93.5 L
S
GR
GS
1 0 1 RC
1 LJ
1.1 LW
N
366.5 97 M
366.5 90 L
S
GR
GS
1 0 1 RC
1 LJ
1.1 LW
N
364 100.5 M
371 100.5 L
S
GR
GS
1 0 1 RC
1 LJ
1.1 LW
N
367.5 104 M
367.5 97 L
S
GR
GS
1 0 1 RC
1 LJ
1.1 LW
N
365 103.5 M
372 103.5 L
S
GR
GS
1 0 1 RC
1 LJ
1.1 LW
N
368.5 107 M
368.5 100 L
S
GR
GS
1 0 1 RC
1 LJ
1.1 LW
N
365 105.5 M
372 105.5 L
S
GR
GS
1 0 1 RC
1 LJ
1.1 LW
N
368.5 109 M
368.5 102 L
S
GR
GS
1 0 1 RC
1 LJ
1.1 LW
N
366 109.5 M
373 109.5 L
S
GR
GS
1 0 1 RC
1 LJ
1.1 LW
N
369.5 113 M
369.5 106 L
S
GR
GS
1 0 1 RC
1 LJ
1.1 LW
N
366 114.5 M
373 114.5 L
S
GR
GS
1 0 1 RC
1 LJ
1.1 LW
N
369.5 118 M
369.5 111 L
S
GR
GS
1 0 1 RC
1 LJ
1.1 LW
N
367 118.5 M
374 118.5 L
S
GR
GS
1 0 1 RC
1 LJ
1.1 LW
N
370.5 122 M
370.5 115 L
S
GR
GS
1 0 1 RC
1 LJ
1.1 LW
N
367 121.5 M
374 121.5 L
S
GR
GS
1 0 1 RC
1 LJ
1.1 LW
N
370.5 125 M
370.5 118 L
S
GR
GS
1 0 1 RC
1 LJ
1.1 LW
N
368 122.5 M
375 122.5 L
S
GR
GS
1 0 1 RC
1 LJ
1.1 LW
N
371.5 126 M
371.5 119 L
S
GR
GS
1 0 1 RC
1 LJ
1.1 LW
N
368 128.5 M
375 128.5 L
S
GR
GS
1 0 1 RC
1 LJ
1.1 LW
N
371.5 132 M
371.5 125 L
S
GR
GS
1 0 1 RC
1 LJ
1.1 LW
N
369 127.5 M
376 127.5 L
S
GR
GS
1 0 1 RC
1 LJ
1.1 LW
N
372.5 131 M
372.5 124 L
S
GR
GS
1 0 1 RC
1 LJ
1.1 LW
N
369 132.5 M
376 132.5 L
S
GR
GS
1 0 1 RC
1 LJ
1.1 LW
N
372.5 136 M
372.5 129 L
S
GR
GS
1 0 1 RC
1 LJ
1.1 LW
N
370 137.5 M
377 137.5 L
S
GR
GS
1 0 1 RC
1 LJ
1.1 LW
N
373.5 141 M
373.5 134 L
S
GR
GS
1 0 1 RC
1 LJ
1.1 LW
N
371 141.5 M
378 141.5 L
S
GR
GS
1 0 1 RC
1 LJ
1.1 LW
N
374.5 145 M
374.5 138 L
S
GR
GS
1 0 1 RC
1 LJ
1.1 LW
N
371 146.5 M
378 146.5 L
S
GR
GS
1 0 1 RC
1 LJ
1.1 LW
N
374.5 150 M
374.5 143 L
S
GR
GS
1 0 1 RC
1 LJ
1.1 LW
N
372 148.5 M
379 148.5 L
S
GR
GS
1 0 1 RC
1 LJ
1.1 LW
N
375.5 152 M
375.5 145 L
S
GR
GS
1 0 1 RC
1 LJ
1.1 LW
N
373 156.5 M
380 156.5 L
S
GR
GS
1 0 1 RC
1 LJ
1.1 LW
N
376.5 160 M
376.5 153 L
S
GR
GS
1 0 1 RC
1 LJ
1.1 LW
N
373 155.5 M
380 155.5 L
S
GR
GS
1 0 1 RC
1 LJ
1.1 LW
N
376.5 159 M
376.5 152 L
S
GR
GS
1 0 1 RC
1 LJ
1.1 LW
N
373 158.5 M
380 158.5 L
S
GR
GS
1 0 1 RC
1 LJ
1.1 LW
N
376.5 162 M
376.5 155 L
S
GR
GS
1 0 1 RC
1 LJ
1.1 LW
N
374 163.5 M
381 163.5 L
S
GR
GS
1 0 1 RC
1 LJ
1.1 LW
N
377.5 167 M
377.5 160 L
S
GR
GS
1 0 1 RC
1 LJ
1.1 LW
N
375 168.5 M
382 168.5 L
S
GR
GS
1 0 1 RC
1 LJ
1.1 LW
N
378.5 172 M
378.5 165 L
S
GR
GS
1 0 1 RC
1 LJ
1.1 LW
N
375 171.5 M
382 171.5 L
S
GR
GS
1 0 1 RC
1 LJ
1.1 LW
N
378.5 175 M
378.5 168 L
S
GR
GS
1 0 1 RC
1 LJ
1.1 LW
N
375 175.5 M
382 175.5 L
S
GR
GS
1 0 1 RC
1 LJ
1.1 LW
N
378.5 179 M
378.5 172 L
S
GR
GS
1 0 1 RC
1 LJ
1.1 LW
N
376 175.5 M
383 175.5 L
S
GR
GS
1 0 1 RC
1 LJ
1.1 LW
N
379.5 179 M
379.5 172 L
S
GR
GS
1 0 1 RC
1 LJ
1.1 LW
N
376 179.5 M
383 179.5 L
S
GR
GS
1 0 1 RC
1 LJ
1.1 LW
N
379.5 183 M
379.5 176 L
S
GR
GS
1 0 1 RC
1 LJ
1.1 LW
N
377 182.5 M
384 182.5 L
S
GR
GS
1 0 1 RC
1 LJ
1.1 LW
N
380.5 186 M
380.5 179 L
S
GR
GS
1 0 1 RC
1 LJ
1.1 LW
N
377 185.5 M
384 185.5 L
S
GR
GS
1 0 1 RC
1 LJ
1.1 LW
N
380.5 189 M
380.5 182 L
S
GR
GS
1 0 1 RC
1 LJ
1.1 LW
N
378 189.5 M
385 189.5 L
S
GR
GS
1 0 1 RC
1 LJ
1.1 LW
N
381.5 193 M
381.5 186 L
S
GR
GS
1 0 1 RC
1 LJ
1.1 LW
N
378 190.5 M
385 190.5 L
S
GR
GS
1 0 1 RC
1 LJ
1.1 LW
N
381.5 194 M
381.5 187 L
S
GR
GS
1 0 1 RC
1 LJ
1.1 LW
N
379 193.5 M
386 193.5 L
S
GR
GS
1 0 1 RC
1 LJ
1.1 LW
N
382.5 197 M
382.5 190 L
S
GR
GS
1 0 1 RC
1 LJ
1.1 LW
N
379 200.5 M
386 200.5 L
S
GR
GS
1 0 1 RC
1 LJ
1.1 LW
N
382.5 204 M
382.5 197 L
S
GR
GS
1 0 1 RC
1 LJ
1.1 LW
N
379 201.5 M
386 201.5 L
S
GR
GS
1 0 1 RC
1 LJ
1.1 LW
N
382.5 205 M
382.5 198 L
S
GR
GS
1 0 1 RC
1 LJ
1.1 LW
N
380 204.5 M
387 204.5 L
S
GR
GS
1 0 1 RC
1 LJ
1.1 LW
N
383.5 208 M
383.5 201 L
S
GR
GS
1 0 1 RC
1 LJ
1.1 LW
N
380 208.5 M
387 208.5 L
S
GR
GS
1 0 1 RC
1 LJ
1.1 LW
N
383.5 212 M
383.5 205 L
S
GR
GS
1 0 1 RC
1 LJ
1.1 LW
N
381 209.5 M
388 209.5 L
S
GR
GS
1 0 1 RC
1 LJ
1.1 LW
N
384.5 213 M
384.5 206 L
S
GR
GS
1 0 1 RC
1 LJ
1.1 LW
N
381 215.5 M
388 215.5 L
S
GR
GS
1 0 1 RC
1 LJ
1.1 LW
N
384.5 219 M
384.5 212 L
S
GR
GS
1 0 1 RC
1 LJ
1.1 LW
N
381 214.5 M
388 214.5 L
S
GR
GS
1 0 1 RC
1 LJ
1.1 LW
N
384.5 218 M
384.5 211 L
S
GR
GS
1 0 1 RC
1 LJ
1.1 LW
N
382 221.5 M
389 221.5 L
S
GR
GS
1 0 1 RC
1 LJ
1.1 LW
N
385.5 225 M
385.5 218 L
S
GR
GS
1 0 1 RC
1 LJ
1.1 LW
N
382 222.5 M
389 222.5 L
S
GR
GS
1 0 1 RC
1 LJ
1.1 LW
N
385.5 226 M
385.5 219 L
S
GR
GS
1 0 1 RC
1 LJ
1.1 LW
N
383 230.5 M
390 230.5 L
S
GR
GS
1 0 1 RC
1 LJ
1.1 LW
N
386.5 234 M
386.5 227 L
S
GR
GS
1 0 1 RC
1 LJ
1.1 LW
N
384 231.5 M
391 231.5 L
S
GR
GS
1 0 1 RC
1 LJ
1.1 LW
N
387.5 235 M
387.5 228 L
S
GR
GS
1 0 1 RC
1 LJ
1.1 LW
N
384 234.5 M
391 234.5 L
S
GR
GS
1 0 1 RC
1 LJ
1.1 LW
N
387.5 238 M
387.5 231 L
S
GR
GS
1 0 1 RC
1 LJ
1.1 LW
N
384 238.5 M
391 238.5 L
S
GR
GS
1 0 1 RC
1 LJ
1.1 LW
N
387.5 242 M
387.5 235 L
S
GR
GS
1 0 1 RC
1 LJ
1.1 LW
N
385 240.5 M
392 240.5 L
S
GR
GS
1 0 1 RC
1 LJ
1.1 LW
N
388.5 244 M
388.5 237 L
S
GR
GS
1 0 1 RC
1 LJ
1.1 LW
N
385 241.5 M
392 241.5 L
S
GR
GS
1 0 1 RC
1 LJ
1.1 LW
N
388.5 245 M
388.5 238 L
S
GR
GS
1 0 1 RC
1 LJ
1.1 LW
N
386 249.5 M
393 249.5 L
S
GR
GS
1 0 1 RC
1 LJ
1.1 LW
N
389.5 253 M
389.5 246 L
S
GR
GS
1 0 1 RC
1 LJ
1.1 LW
N
386 248.5 M
393 248.5 L
S
GR
GS
1 0 1 RC
1 LJ
1.1 LW
N
389.5 252 M
389.5 245 L
S
GR
GS
1 0 1 RC
1 LJ
1.1 LW
N
386 251.5 M
393 251.5 L
S
GR
GS
1 0 1 RC
1 LJ
1.1 LW
N
389.5 255 M
389.5 248 L
S
GR
GS
1 0 1 RC
1 LJ
1.1 LW
N
387 257.5 M
394 257.5 L
S
GR
GS
1 0 1 RC
1 LJ
1.1 LW
N
390.5 261 M
390.5 254 L
S
GR
GS
1 0 1 RC
1 LJ
1.1 LW
N
387 260.5 M
394 260.5 L
S
GR
GS
1 0 1 RC
1 LJ
1.1 LW
N
390.5 264 M
390.5 257 L
S
GR
GS
1 0 1 RC
1 LJ
1.1 LW
N
388 260.5 M
395 260.5 L
S
GR
GS
1 0 1 RC
1 LJ
1.1 LW
N
391.5 264 M
391.5 257 L
S
GR
GS
1 0 1 RC
1 LJ
1.1 LW
N
388 259.5 M
395 259.5 L
S
GR
GS
1 0 1 RC
1 LJ
1.1 LW
N
391.5 263 M
391.5 256 L
S
GR
GS
1 0 1 RC
1 LJ
1.1 LW
N
388 262.5 M
395 262.5 L
S
GR
GS
1 0 1 RC
1 LJ
1.1 LW
N
391.5 266 M
391.5 259 L
S
GR
GS
1 0 1 RC
1 LJ
1.1 LW
N
389 265.5 M
396 265.5 L
S
GR
GS
1 0 1 RC
1 LJ
1.1 LW
N
392.5 269 M
392.5 262 L
S
GR
GS
1 0 1 RC
1 LJ
1.1 LW
N
389 267.5 M
396 267.5 L
S
GR
GS
1 0 1 RC
1 LJ
1.1 LW
N
392.5 271 M
392.5 264 L
S
GR
GS
1 0 1 RC
1 LJ
1.1 LW
N
389 270.5 M
396 270.5 L
S
GR
GS
1 0 1 RC
1 LJ
1.1 LW
N
392.5 274 M
392.5 267 L
S
GR
GS
1 0 1 RC
1 LJ
1.1 LW
N
390 275.5 M
397 275.5 L
S
GR
GS
1 0 1 RC
1 LJ
1.1 LW
N
393.5 279 M
393.5 272 L
S
GR
GS
1 0 1 RC
1 LJ
1.1 LW
N
390 278.5 M
397 278.5 L
S
GR
GS
1 0 1 RC
1 LJ
1.1 LW
N
393.5 282 M
393.5 275 L
S
GR
GS
1 0 1 RC
1 LJ
1.1 LW
N
391 281.5 M
398 281.5 L
S
GR
GS
1 0 1 RC
1 LJ
1.1 LW
N
394.5 285 M
394.5 278 L
S
GR
GS
1 0 1 RC
1 LJ
1.1 LW
N
391 280.5 M
398 280.5 L
S
GR
GS
1 0 1 RC
1 LJ
1.1 LW
N
394.5 284 M
394.5 277 L
S
GR
GS
1 0 1 RC
1 LJ
1.1 LW
N
391 282.5 M
398 282.5 L
S
GR
GS
1 0 1 RC
1 LJ
1.1 LW
N
394.5 286 M
394.5 279 L
S
GR
GS
1 0 1 RC
1 LJ
1.1 LW
N
392 286.5 M
399 286.5 L
S
GR
GS
1 0 1 RC
1 LJ
1.1 LW
N
395.5 290 M
395.5 283 L
S
GR
GS
1 0 1 RC
1 LJ
1.1 LW
N
392 288.5 M
399 288.5 L
S
GR
GS
1 0 1 RC
1 LJ
1.1 LW
N
395.5 292 M
395.5 285 L
S
GR
GS
1 0 1 RC
1 LJ
1.1 LW
N
392 289.5 M
399 289.5 L
S
GR
GS
1 0 1 RC
1 LJ
1.1 LW
N
395.5 293 M
395.5 286 L
S
GR
GS
1 0 1 RC
1 LJ
1.1 LW
N
392 288.5 M
399 288.5 L
S
GR
GS
1 0 1 RC
1 LJ
1.1 LW
N
395.5 292 M
395.5 285 L
S
GR
GS
1 0 1 RC
1 LJ
1.1 LW
N
393 292.5 M
400 292.5 L
S
GR
GS
1 0 1 RC
1 LJ
1.1 LW
N
396.5 296 M
396.5 289 L
S
GR
GS
1 0 1 RC
1 LJ
1.1 LW
N
393 296.5 M
400 296.5 L
S
GR
GS
1 0 1 RC
1 LJ
1.1 LW
N
396.5 300 M
396.5 293 L
S
GR
GS
1 0 1 RC
1 LJ
1.1 LW
N
394 296.5 M
401 296.5 L
S
GR
GS
1 0 1 RC
1 LJ
1.1 LW
N
397.5 300 M
397.5 293 L
S
GR
GS
1 0 1 RC
1 LJ
1.1 LW
N
394 298.5 M
401 298.5 L
S
GR
GS
1 0 1 RC
1 LJ
1.1 LW
N
397.5 302 M
397.5 295 L
S
GR
GS
1 0 1 RC
1 LJ
1.1 LW
N
394 300.5 M
401 300.5 L
S
GR
GS
1 0 1 RC
1 LJ
1.1 LW
N
397.5 304 M
397.5 297 L
S
GR
GS
1 0 1 RC
1 LJ
1.1 LW
N
394 302.5 M
401 302.5 L
S
GR
GS
1 0 1 RC
1 LJ
1.1 LW
N
397.5 306 M
397.5 299 L
S
GR
GS
1 0 1 RC
1 LJ
1.1 LW
N
395 302.5 M
402 302.5 L
S
GR
GS
1 0 1 RC
1 LJ
1.1 LW
N
398.5 306 M
398.5 299 L
S
GR
GS
1 0 1 RC
1 LJ
1.1 LW
N
395 307.5 M
402 307.5 L
S
GR
GS
1 0 1 RC
1 LJ
1.1 LW
N
398.5 311 M
398.5 304 L
S
GR
GS
1 0 1 RC
1 LJ
1.1 LW
N
396 309.5 M
403 309.5 L
S
GR
GS
1 0 1 RC
1 LJ
1.1 LW
N
399.5 313 M
399.5 306 L
S
GR
GS
1 0 1 RC
1 LJ
1.1 LW
N
396 309.5 M
403 309.5 L
S
GR
GS
1 0 1 RC
1 LJ
1.1 LW
N
399.5 313 M
399.5 306 L
S
GR
GS
1 0 1 RC
1 LJ
1.1 LW
N
396 311.5 M
403 311.5 L
S
GR
GS
1 0 1 RC
1 LJ
1.1 LW
N
399.5 315 M
399.5 308 L
S
GR
GS
1 0 1 RC
1 LJ
1.1 LW
N
397 314.5 M
404 314.5 L
S
GR
GS
1 0 1 RC
1 LJ
1.1 LW
N
400.5 318 M
400.5 311 L
S
GR
GS
1 0 1 RC
1 LJ
1.1 LW
N
397 316.5 M
404 316.5 L
S
GR
GS
1 0 1 RC
1 LJ
1.1 LW
N
400.5 320 M
400.5 313 L
S
GR
GS
1 0 1 RC
1 LJ
1.1 LW
N
397 315.5 M
404 315.5 L
S
GR
GS
1 0 1 RC
1 LJ
1.1 LW
N
400.5 319 M
400.5 312 L
S
GR
GS
1 0 1 RC
1 LJ
1.1 LW
N
397 318.5 M
404 318.5 L
S
GR
GS
1 0 1 RC
1 LJ
1.1 LW
N
400.5 322 M
400.5 315 L
S
GR
GS
1 0 1 RC
1 LJ
1.1 LW
N
397 318.5 M
404 318.5 L
S
GR
GS
1 0 1 RC
1 LJ
1.1 LW
N
400.5 322 M
400.5 315 L
S
GR
GS
1 0 1 RC
1 LJ
1.1 LW
N
398 320.5 M
405 320.5 L
S
GR
GS
1 0 1 RC
1 LJ
1.1 LW
N
401.5 324 M
401.5 317 L
S
GR
GS
1 0 1 RC
1 LJ
1.1 LW
N
398 319.5 M
405 319.5 L
S
GR
GS
1 0 1 RC
1 LJ
1.1 LW
N
401.5 323 M
401.5 316 L
S
GR
GS
1 0 1 RC
1 LJ
1.1 LW
N
398 321.5 M
405 321.5 L
S
GR
GS
1 0 1 RC
1 LJ
1.1 LW
N
401.5 325 M
401.5 318 L
S
GR
GS
1 0 1 RC
1 LJ
1.1 LW
N
398 323.5 M
405 323.5 L
S
GR
GS
1 0 1 RC
1 LJ
1.1 LW
N
401.5 327 M
401.5 320 L
S
GR
GS
1 0 1 RC
1 LJ
1.1 LW
N
398 323.5 M
405 323.5 L
S
GR
GS
1 0 1 RC
1 LJ
1.1 LW
N
401.5 327 M
401.5 320 L
S
GR
GS
1 0 1 RC
1 LJ
1.1 LW
N
399 325.5 M
406 325.5 L
S
GR
GS
1 0 1 RC
1 LJ
1.1 LW
N
402.5 329 M
402.5 322 L
S
GR
GS
1 0 1 RC
1 LJ
1.1 LW
N
399 324.5 M
406 324.5 L
S
GR
GS
1 0 1 RC
1 LJ
1.1 LW
N
402.5 328 M
402.5 321 L
S
GR
GS
1 0 1 RC
1 LJ
1.1 LW
N
399 327.5 M
406 327.5 L
S
GR
GS
1 0 1 RC
1 LJ
1.1 LW
N
402.5 331 M
402.5 324 L
S
GR
GS
1 0 1 RC
1 LJ
1.1 LW
N
400 331.5 M
407 331.5 L
S
GR
GS
1 0 1 RC
1 LJ
1.1 LW
N
403.5 335 M
403.5 328 L
S
GR
GS
1 0 1 RC
1 LJ
1.1 LW
N
400 331.5 M
407 331.5 L
S
GR
GS
1 0 1 RC
1 LJ
1.1 LW
N
403.5 335 M
403.5 328 L
S
GR
GS
1 0 1 RC
1 LJ
1.1 LW
N
400 331.5 M
407 331.5 L
S
GR
GS
1 0 1 RC
1 LJ
1.1 LW
N
403.5 335 M
403.5 328 L
S
GR
GS
1 0 1 RC
1 LJ
1.1 LW
N
400 331.5 M
407 331.5 L
S
GR
GS
1 0 1 RC
1 LJ
1.1 LW
N
403.5 335 M
403.5 328 L
S
GR
GS
1 0 1 RC
1 LJ
1.1 LW
N
400 331.5 M
407 331.5 L
S
GR
GS
1 0 1 RC
1 LJ
1.1 LW
N
403.5 335 M
403.5 328 L
S
GR
GS
1 0 1 RC
1 LJ
1.1 LW
N
401 334.5 M
408 334.5 L
S
GR
GS
1 0 1 RC
1 LJ
1.1 LW
N
404.5 338 M
404.5 331 L
S
GR
GS
1 0 1 RC
1 LJ
1.1 LW
N
401 335.5 M
408 335.5 L
S
GR
GS
1 0 1 RC
1 LJ
1.1 LW
N
404.5 339 M
404.5 332 L
S
GR
GS
1 0 1 RC
1 LJ
1.1 LW
N
401 334.5 M
408 334.5 L
S
GR
GS
1 0 1 RC
1 LJ
1.1 LW
N
404.5 338 M
404.5 331 L
S
GR
GS
1 0 1 RC
1 LJ
1.1 LW
N
401 335.5 M
408 335.5 L
S
GR
GS
1 0 1 RC
1 LJ
1.1 LW
N
404.5 339 M
404.5 332 L
S
GR
GS
1 0 1 RC
1 LJ
1.1 LW
N
402 337.5 M
409 337.5 L
S
GR
GS
1 0 1 RC
1 LJ
1.1 LW
N
405.5 341 M
405.5 334 L
S
GR
GS
1 0 1 RC
1 LJ
1.1 LW
N
402 338.5 M
409 338.5 L
S
GR
GS
1 0 1 RC
1 LJ
1.1 LW
N
405.5 342 M
405.5 335 L
S
GR
GS
1 0 1 RC
1 LJ
1.1 LW
N
402 337.5 M
409 337.5 L
S
GR
GS
1 0 1 RC
1 LJ
1.1 LW
N
405.5 341 M
405.5 334 L
S
GR
GS
1 0 1 RC
1 LJ
1.1 LW
N
402 340.5 M
409 340.5 L
S
GR
GS
1 0 1 RC
1 LJ
1.1 LW
N
405.5 344 M
405.5 337 L
S
GR
GS
1 0 1 RC
1 LJ
1.1 LW
N
403 341.5 M
410 341.5 L
S
GR
GS
1 0 1 RC
1 LJ
1.1 LW
N
406.5 345 M
406.5 338 L
S
GR
GS
1 0 1 RC
1 LJ
1.1 LW
N
403 344.5 M
410 344.5 L
S
GR
GS
1 0 1 RC
1 LJ
1.1 LW
N
406.5 348 M
406.5 341 L
S
GR
GS
1 0 1 RC
1 LJ
1.1 LW
N
403 342.5 M
410 342.5 L
S
GR
GS
1 0 1 RC
1 LJ
1.1 LW
N
406.5 346 M
406.5 339 L
S
GR
GS
1 0 1 RC
1 LJ
1.1 LW
N
403 344.5 M
410 344.5 L
S
GR
GS
1 0 1 RC
1 LJ
1.1 LW
N
406.5 348 M
406.5 341 L
S
GR
GS
1 0 1 RC
1 LJ
1.1 LW
N
404 345.5 M
411 345.5 L
S
GR
GS
1 0 1 RC
1 LJ
1.1 LW
N
407.5 349 M
407.5 342 L
S
GR
GS
1 0 1 RC
1 LJ
1.1 LW
N
404 345.5 M
411 345.5 L
S
GR
GS
1 0 1 RC
1 LJ
1.1 LW
N
407.5 349 M
407.5 342 L
S
GR
GS
1 0 1 RC
1 LJ
1.1 LW
N
405 347.5 M
412 347.5 L
S
GR
GS
1 0 1 RC
1 LJ
1.1 LW
N
408.5 351 M
408.5 344 L
S
GR
GS
1 0 1 RC
1 LJ
1.1 LW
N
405 352.5 M
412 352.5 L
S
GR
GS
1 0 1 RC
1 LJ
1.1 LW
N
408.5 356 M
408.5 349 L
S
GR
GS
1 0 1 RC
1 LJ
1.1 LW
N
406 354.5 M
413 354.5 L
S
GR
GS
1 0 1 RC
1 LJ
1.1 LW
N
409.5 358 M
409.5 351 L
S
GR
GS
1 0 1 RC
1 LJ
1.1 LW
N
406 354.5 M
413 354.5 L
S
GR
GS
1 0 1 RC
1 LJ
1.1 LW
N
409.5 358 M
409.5 351 L
S
GR
GS
1 0 1 RC
1 LJ
1.1 LW
N
407 354.5 M
414 354.5 L
S
GR
GS
1 0 1 RC
1 LJ
1.1 LW
N
410.5 358 M
410.5 351 L
S
GR
GS
1 0 1 RC
1 LJ
1.1 LW
N
407 354.5 M
414 354.5 L
S
GR
GS
1 0 1 RC
1 LJ
1.1 LW
N
410.5 358 M
410.5 351 L
S
GR
GS
1 0 1 RC
1 LJ
1.1 LW
N
407 354.5 M
414 354.5 L
S
GR
GS
1 0 1 RC
1 LJ
1.1 LW
N
410.5 358 M
410.5 351 L
S
GR
GS
1 0 1 RC
1 LJ
1.1 LW
N
408 356.5 M
415 356.5 L
S
GR
GS
1 0 1 RC
1 LJ
1.1 LW
N
411.5 360 M
411.5 353 L
S
GR
GS
1 0 1 RC
1 LJ
1.1 LW
N
408 358.5 M
415 358.5 L
S
GR
GS
1 0 1 RC
1 LJ
1.1 LW
N
411.5 362 M
411.5 355 L
S
GR
GS
1 0 1 RC
1 LJ
1.1 LW
N
408 360.5 M
415 360.5 L
S
GR
GS
1 0 1 RC
1 LJ
1.1 LW
N
411.5 364 M
411.5 357 L
S
GR
GS
1 0 1 RC
1 LJ
1.1 LW
N
409 358.5 M
416 358.5 L
S
GR
GS
1 0 1 RC
1 LJ
1.1 LW
N
412.5 362 M
412.5 355 L
S
GR
GS
1 0 1 RC
1 LJ
1.1 LW
N
409 358.5 M
416 358.5 L
S
GR
GS
1 0 1 RC
1 LJ
1.1 LW
N
412.5 362 M
412.5 355 L
S
GR
GS
1 0 1 RC
1 LJ
1.1 LW
N
410 363.5 M
417 363.5 L
S
GR
GS
1 0 1 RC
1 LJ
1.1 LW
N
413.5 367 M
413.5 360 L
S
GR
GS
1 0 1 RC
1 LJ
1.1 LW
N
410 361.5 M
417 361.5 L
S
GR
GS
1 0 1 RC
1 LJ
1.1 LW
N
413.5 365 M
413.5 358 L
S
GR
GS
1 0 1 RC
1 LJ
1.1 LW
N
410 361.5 M
417 361.5 L
S
GR
GS
1 0 1 RC
1 LJ
1.1 LW
N
413.5 365 M
413.5 358 L
S
GR
GS
1 0 1 RC
1 LJ
1.1 LW
N
410 361.5 M
417 361.5 L
S
GR
GS
1 0 1 RC
1 LJ
1.1 LW
N
413.5 365 M
413.5 358 L
S
GR
GS
1 0 1 RC
1 LJ
1.1 LW
N
411 363.5 M
418 363.5 L
S
GR
GS
1 0 1 RC
1 LJ
1.1 LW
N
414.5 367 M
414.5 360 L
S
GR
GS
1 0 1 RC
1 LJ
1.1 LW
N
412 365.5 M
419 365.5 L
S
GR
GS
1 0 1 RC
1 LJ
1.1 LW
N
415.5 369 M
415.5 362 L
S
GR
GS
1 0 1 RC
1 LJ
1.1 LW
N
412 366.5 M
419 366.5 L
S
GR
GS
1 0 1 RC
1 LJ
1.1 LW
N
415.5 370 M
415.5 363 L
S
GR
GS
1 0 1 RC
1 LJ
1.1 LW
N
412 366.5 M
419 366.5 L
S
GR
GS
1 0 1 RC
1 LJ
1.1 LW
N
415.5 370 M
415.5 363 L
S
GR
GS
1 0 1 RC
1 LJ
1.1 LW
N
413 366.5 M
420 366.5 L
S
GR
GS
1 0 1 RC
1 LJ
1.1 LW
N
416.5 370 M
416.5 363 L
S
GR
GS
1 0 1 RC
1 LJ
1.1 LW
N
413 366.5 M
420 366.5 L
S
GR
GS
1 0 1 RC
1 LJ
1.1 LW
N
416.5 370 M
416.5 363 L
S
GR
GS
1 0 1 RC
1 LJ
1.1 LW
N
414 370.5 M
421 370.5 L
S
GR
GS
1 0 1 RC
1 LJ
1.1 LW
N
417.5 374 M
417.5 367 L
S
GR
GS
1 0 1 RC
1 LJ
1.1 LW
N
414 367.5 M
421 367.5 L
S
GR
GS
1 0 1 RC
1 LJ
1.1 LW
N
417.5 371 M
417.5 364 L
S
GR
GS
1 0 1 RC
1 LJ
1.1 LW
N
415 368.5 M
422 368.5 L
S
GR
GS
1 0 1 RC
1 LJ
1.1 LW
N
418.5 372 M
418.5 365 L
S
GR
GS
1 0 1 RC
1 LJ
1.1 LW
N
415 368.5 M
422 368.5 L
S
GR
GS
1 0 1 RC
1 LJ
1.1 LW
N
418.5 372 M
418.5 365 L
S
GR
GS
1 0 1 RC
1 LJ
1.1 LW
N
415 371.5 M
422 371.5 L
S
GR
GS
1 0 1 RC
1 LJ
1.1 LW
N
418.5 375 M
418.5 368 L
S
GR
GS
1 0 1 RC
1 LJ
1.1 LW
N
416 370.5 M
423 370.5 L
S
GR
GS
1 0 1 RC
1 LJ
1.1 LW
N
419.5 374 M
419.5 367 L
S
GR
GS
1 0 1 RC
1 LJ
1.1 LW
N
416 370.5 M
423 370.5 L
S
GR
GS
1 0 1 RC
1 LJ
1.1 LW
N
419.5 374 M
419.5 367 L
S
GR
GS
1 0 1 RC
1 LJ
1.1 LW
N
417 370.5 M
424 370.5 L
S
GR
GS
1 0 1 RC
1 LJ
1.1 LW
N
420.5 374 M
420.5 367 L
S
GR
GS
1 0 1 RC
1 LJ
1.1 LW
N
417 371.5 M
424 371.5 L
S
GR
GS
1 0 1 RC
1 LJ
1.1 LW
N
420.5 375 M
420.5 368 L
S
GR
GS
1 0 1 RC
1 LJ
1.1 LW
N
417 371.5 M
424 371.5 L
S
GR
GS
1 0 1 RC
1 LJ
1.1 LW
N
420.5 375 M
420.5 368 L
S
GR
GS
1 0 1 RC
1 LJ
1.1 LW
N
418 373.5 M
425 373.5 L
S
GR
GS
1 0 1 RC
1 LJ
1.1 LW
N
421.5 377 M
421.5 370 L
S
GR
GS
1 0 1 RC
1 LJ
1.1 LW
N
418 371.5 M
425 371.5 L
S
GR
GS
1 0 1 RC
1 LJ
1.1 LW
N
421.5 375 M
421.5 368 L
S
GR
GS
1 0 1 RC
1 LJ
1.1 LW
N
419 371.5 M
426 371.5 L
S
GR
GS
1 0 1 RC
1 LJ
1.1 LW
N
422.5 375 M
422.5 368 L
S
GR
GS
1 0 1 RC
1 LJ
1.1 LW
N
419 370.5 M
426 370.5 L
S
GR
GS
1 0 1 RC
1 LJ
1.1 LW
N
422.5 374 M
422.5 367 L
S
GR
GS
1 0 1 RC
1 LJ
1.1 LW
N
420 372.5 M
427 372.5 L
S
GR
GS
1 0 1 RC
1 LJ
1.1 LW
N
423.5 376 M
423.5 369 L
S
GR
GS
1 0 1 RC
1 LJ
1.1 LW
N
420 371.5 M
427 371.5 L
S
GR
GS
1 0 1 RC
1 LJ
1.1 LW
N
423.5 375 M
423.5 368 L
S
GR
GS
1 0 1 RC
1 LJ
1.1 LW
N
421 371.5 M
428 371.5 L
S
GR
GS
1 0 1 RC
1 LJ
1.1 LW
N
424.5 375 M
424.5 368 L
S
GR
GS
1 0 1 RC
1 LJ
1.1 LW
N
422 370.5 M
429 370.5 L
S
GR
GS
1 0 1 RC
1 LJ
1.1 LW
N
425.5 374 M
425.5 367 L
S
GR
GS
1 0 1 RC
1 LJ
1.1 LW
N
422 371.5 M
429 371.5 L
S
GR
GS
1 0 1 RC
1 LJ
1.1 LW
N
425.5 375 M
425.5 368 L
S
GR
GS
1 0 1 RC
1 LJ
1.1 LW
N
422 371.5 M
429 371.5 L
S
GR
GS
1 0 1 RC
1 LJ
1.1 LW
N
425.5 375 M
425.5 368 L
S
GR
GS
1 0 1 RC
1 LJ
1.1 LW
N
423 370.5 M
430 370.5 L
S
GR
GS
1 0 1 RC
1 LJ
1.1 LW
N
426.5 374 M
426.5 367 L
S
GR
GS
1 0 1 RC
1 LJ
1.1 LW
N
423 368.5 M
430 368.5 L
S
GR
GS
1 0 1 RC
1 LJ
1.1 LW
N
426.5 372 M
426.5 365 L
S
GR
GS
1 0 1 RC
1 LJ
1.1 LW
N
424 368.5 M
431 368.5 L
S
GR
GS
1 0 1 RC
1 LJ
1.1 LW
N
427.5 372 M
427.5 365 L
S
GR
GS
1 0 1 RC
1 LJ
1.1 LW
N
424 370.5 M
431 370.5 L
S
GR
GS
1 0 1 RC
1 LJ
1.1 LW
N
427.5 374 M
427.5 367 L
S
GR
GS
1 0 1 RC
1 LJ
1.1 LW
N
425 368.5 M
432 368.5 L
S
GR
GS
1 0 1 RC
1 LJ
1.1 LW
N
428.5 372 M
428.5 365 L
S
GR
GS
1 0 1 RC
1 LJ
1.1 LW
N
426 369.5 M
433 369.5 L
S
GR
GS
1 0 1 RC
1 LJ
1.1 LW
N
429.5 373 M
429.5 366 L
S
GR
GS
1 0 1 RC
1 LJ
1.1 LW
N
426 367.5 M
433 367.5 L
S
GR
GS
1 0 1 RC
1 LJ
1.1 LW
N
429.5 371 M
429.5 364 L
S
GR
GS
1 0 1 RC
1 LJ
1.1 LW
N
427 365.5 M
434 365.5 L
S
GR
GS
1 0 1 RC
1 LJ
1.1 LW
N
430.5 369 M
430.5 362 L
S
GR
GS
1 0 1 RC
1 LJ
1.1 LW
N
427 367.5 M
434 367.5 L
S
GR
GS
1 0 1 RC
1 LJ
1.1 LW
N
430.5 371 M
430.5 364 L
S
GR
GS
1 0 1 RC
1 LJ
1.1 LW
N
428 366.5 M
435 366.5 L
S
GR
GS
1 0 1 RC
1 LJ
1.1 LW
N
431.5 370 M
431.5 363 L
S
GR
GS
1 0 1 RC
1 LJ
1.1 LW
N
428 366.5 M
435 366.5 L
S
GR
GS
1 0 1 RC
1 LJ
1.1 LW
N
431.5 370 M
431.5 363 L
S
GR
GS
1 0 1 RC
1 LJ
1.1 LW
N
428 364.5 M
435 364.5 L
S
GR
GS
1 0 1 RC
1 LJ
1.1 LW
N
431.5 368 M
431.5 361 L
S
GR
GS
1 0 1 RC
1 LJ
1.1 LW
N
429 363.5 M
436 363.5 L
S
GR
GS
1 0 1 RC
1 LJ
1.1 LW
N
432.5 367 M
432.5 360 L
S
GR
GS
1 0 1 RC
1 LJ
1.1 LW
N
429 361.5 M
436 361.5 L
S
GR
GS
1 0 1 RC
1 LJ
1.1 LW
N
432.5 365 M
432.5 358 L
S
GR
GS
1 0 1 RC
1 LJ
1.1 LW
N
430 362.5 M
437 362.5 L
S
GR
GS
1 0 1 RC
1 LJ
1.1 LW
N
433.5 366 M
433.5 359 L
S
GR
GS
1 0 1 RC
1 LJ
1.1 LW
N
431 362.5 M
438 362.5 L
S
GR
GS
1 0 1 RC
1 LJ
1.1 LW
N
434.5 366 M
434.5 359 L
S
GR
GS
1 0 1 RC
1 LJ
1.1 LW
N
431 362.5 M
438 362.5 L
S
GR
GS
1 0 1 RC
1 LJ
1.1 LW
N
434.5 366 M
434.5 359 L
S
GR
GS
1 0 1 RC
1 LJ
1.1 LW
N
432 359.5 M
439 359.5 L
S
GR
GS
1 0 1 RC
1 LJ
1.1 LW
N
435.5 363 M
435.5 356 L
S
GR
GS
1 0 1 RC
1 LJ
1.1 LW
N
433 357.5 M
440 357.5 L
S
GR
GS
1 0 1 RC
1 LJ
1.1 LW
N
436.5 361 M
436.5 354 L
S
GR
GS
1 0 1 RC
1 LJ
1.1 LW
N
434 356.5 M
441 356.5 L
S
GR
GS
1 0 1 RC
1 LJ
1.1 LW
N
437.5 360 M
437.5 353 L
S
GR
GS
1 0 1 RC
1 LJ
1.1 LW
N
434 354.5 M
441 354.5 L
S
GR
GS
1 0 1 RC
1 LJ
1.1 LW
N
437.5 358 M
437.5 351 L
S
GR
GS
1 0 1 RC
1 LJ
1.1 LW
N
435 355.5 M
442 355.5 L
S
GR
GS
1 0 1 RC
1 LJ
1.1 LW
N
438.5 359 M
438.5 352 L
S
GR
GS
1 0 1 RC
1 LJ
1.1 LW
N
435 355.5 M
442 355.5 L
S
GR
GS
1 0 1 RC
1 LJ
1.1 LW
N
438.5 359 M
438.5 352 L
S
GR
GS
1 0 1 RC
1 LJ
1.1 LW
N
436 353.5 M
443 353.5 L
S
GR
GS
1 0 1 RC
1 LJ
1.1 LW
N
439.5 357 M
439.5 350 L
S
GR
GS
1 0 1 RC
1 LJ
1.1 LW
N
437 351.5 M
444 351.5 L
S
GR
GS
1 0 1 RC
1 LJ
1.1 LW
N
440.5 355 M
440.5 348 L
S
GR
GS
1 0 1 RC
1 LJ
1.1 LW
N
437 351.5 M
444 351.5 L
S
GR
GS
1 0 1 RC
1 LJ
1.1 LW
N
440.5 355 M
440.5 348 L
S
GR
GS
1 0 1 RC
1 LJ
1.1 LW
N
438 352.5 M
445 352.5 L
S
GR
GS
1 0 1 RC
1 LJ
1.1 LW
N
441.5 356 M
441.5 349 L
S
GR
GS
1 0 1 RC
1 LJ
1.1 LW
N
439 349.5 M
446 349.5 L
S
GR
GS
1 0 1 RC
1 LJ
1.1 LW
N
442.5 353 M
442.5 346 L
S
GR
GS
1 0 1 RC
1 LJ
1.1 LW
N
440 348.5 M
447 348.5 L
S
GR
GS
1 0 1 RC
1 LJ
1.1 LW
N
443.5 352 M
443.5 345 L
S
GR
GS
1 0 1 RC
1 LJ
1.1 LW
N
440 346.5 M
447 346.5 L
S
GR
GS
1 0 1 RC
1 LJ
1.1 LW
N
443.5 350 M
443.5 343 L
S
GR
GS
1 0 1 RC
1 LJ
1.1 LW
N
441 345.5 M
448 345.5 L
S
GR
GS
1 0 1 RC
1 LJ
1.1 LW
N
444.5 349 M
444.5 342 L
S
GR
GS
1 0 1 RC
1 LJ
1.1 LW
N
442 343.5 M
449 343.5 L
S
GR
GS
1 0 1 RC
1 LJ
1.1 LW
N
445.5 347 M
445.5 340 L
S
GR
GS
1 0 1 RC
1 LJ
1.1 LW
N
444 343.5 M
451 343.5 L
S
GR
GS
1 0 1 RC
1 LJ
1.1 LW
N
447.5 347 M
447.5 340 L
S
GR
GS
1 0 1 RC
1 LJ
1.1 LW
N
444 343.5 M
451 343.5 L
S
GR
GS
1 0 1 RC
1 LJ
1.1 LW
N
447.5 347 M
447.5 340 L
S
GR
GS
1 0 1 RC
1 LJ
1.1 LW
N
444 337.5 M
451 337.5 L
S
GR
GS
1 0 1 RC
1 LJ
1.1 LW
N
447.5 341 M
447.5 334 L
S
GR
GS
1 0 1 RC
1 LJ
1.1 LW
N
446 338.5 M
453 338.5 L
S
GR
GS
1 0 1 RC
1 LJ
1.1 LW
N
449.5 342 M
449.5 335 L
S
GR
GS
1 0 1 RC
1 LJ
1.1 LW
N
447 338.5 M
454 338.5 L
S
GR
GS
1 0 1 RC
1 LJ
1.1 LW
N
450.5 342 M
450.5 335 L
S
GR
GS
1 0 1 RC
1 LJ
1.1 LW
N
447 335.5 M
454 335.5 L
S
GR
GS
1 0 1 RC
1 LJ
1.1 LW
N
450.5 339 M
450.5 332 L
S
GR
GS
1 0 1 RC
1 LJ
1.1 LW
N
448 333.5 M
455 333.5 L
S
GR
GS
1 0 1 RC
1 LJ
1.1 LW
N
451.5 337 M
451.5 330 L
S
GR
GS
1 0 1 RC
1 LJ
1.1 LW
N
449 335.5 M
456 335.5 L
S
GR
GS
1 0 1 RC
1 LJ
1.1 LW
N
452.5 339 M
452.5 332 L
S
GR
GS
1 0 1 RC
1 LJ
1.1 LW
N
451 334.5 M
458 334.5 L
S
GR
GS
1 0 1 RC
1 LJ
1.1 LW
N
454.5 338 M
454.5 331 L
S
GR
GS
1 0 1 RC
1 LJ
1.1 LW
N
452 331.5 M
459 331.5 L
S
GR
GS
1 0 1 RC
1 LJ
1.1 LW
N
455.5 335 M
455.5 328 L
S
GR
GS
1 0 1 RC
1 LJ
1.1 LW
N
452 332.5 M
459 332.5 L
S
GR
GS
1 0 1 RC
1 LJ
1.1 LW
N
455.5 336 M
455.5 329 L
S
GR
GS
1 0 1 RC
1 LJ
1.1 LW
N
453 330.5 M
460 330.5 L
S
GR
GS
1 0 1 RC
1 LJ
1.1 LW
N
456.5 334 M
456.5 327 L
S
GR
GS
1 0 1 RC
1 LJ
1.1 LW
N
454 332.5 M
461 332.5 L
S
GR
GS
1 0 1 RC
1 LJ
1.1 LW
N
457.5 336 M
457.5 329 L
S
GR
GS
1 0 1 RC
1 LJ
1.1 LW
N
456 330.5 M
463 330.5 L
S
GR
GS
1 0 1 RC
1 LJ
1.1 LW
N
459.5 334 M
459.5 327 L
S
GR
GS
1 0 1 RC
1 LJ
1.1 LW
N
456 333.5 M
463 333.5 L
S
GR
GS
1 0 1 RC
1 LJ
1.1 LW
N
459.5 337 M
459.5 330 L
S
GR
GS
1 0 1 RC
1 LJ
1.1 LW
N
457 334.5 M
464 334.5 L
S
GR
GS
1 0 1 RC
1 LJ
1.1 LW
N
460.5 338 M
460.5 331 L
S
GR
GS
1 0 1 RC
1 LJ
1.1 LW
N
458 331.5 M
465 331.5 L
S
GR
GS
1 0 1 RC
1 LJ
1.1 LW
N
461.5 335 M
461.5 328 L
S
GR
GS
1 0 1 RC
1 LJ
1.1 LW
N
460 331.5 M
467 331.5 L
S
GR
GS
1 0 1 RC
1 LJ
1.1 LW
N
463.5 335 M
463.5 328 L
S
GR
GS
1 0 1 RC
1 LJ
1.1 LW
N
461 330.5 M
468 330.5 L
S
GR
GS
1 0 1 RC
1 LJ
1.1 LW
N
464.5 334 M
464.5 327 L
S
GR
GS
1 0 1 RC
1 LJ
1.1 LW
N
463 332.5 M
470 332.5 L
S
GR
GS
1 0 1 RC
1 LJ
1.1 LW
N
466.5 336 M
466.5 329 L
S
GR
GS
1 0 1 RC
1 LJ
1.1 LW
N
464 334.5 M
471 334.5 L
S
GR
GS
1 0 1 RC
1 LJ
1.1 LW
N
467.5 338 M
467.5 331 L
S
GR
GS
1 0 1 RC
1 LJ
1.1 LW
N
467 338.5 M
474 338.5 L
S
GR
GS
1 0 1 RC
1 LJ
1.1 LW
N
470.5 342 M
470.5 335 L
S
GR
GS
1 0 1 RC
1 LJ
1.1 LW
N
468 334.5 M
475 334.5 L
S
GR
GS
1 0 1 RC
1 LJ
1.1 LW
N
471.5 338 M
471.5 331 L
S
GR
GS
1 0 1 RC
1 LJ
1.1 LW
N
472 341.5 M
479 341.5 L
S
GR
GS
1 0 1 RC
1 LJ
1.1 LW
N
475.5 345 M
475.5 338 L
S
GR
GS
1 0 1 RC
1 LJ
1.1 LW
N
491 351.5 M
498 351.5 L
S
GR
GS
1 0 1 RC
1 LJ
1.1 LW
N
494.5 355 M
494.5 348 L
S
GR
GS
0.494 0.184 0.557 RC
1 LJ
1.1 LW
N
73 67.141 M
83.551 51.452 L
85.803 55.417 L
86.668 57.001 L
89.142 61.336 L
92.388 65.923 L
94.496 67.965 L
103.543 68.205 L
130.657 51.229 L
163.423 68.975 L
176.999 67.31 L
183.012 64.16 L
183.939 63.59 L
196.863 55.049 L
203.919 51.325 L
225.396 51.72 L
229.078 53.646 L
238.155 59.843 L
240.159 61.364 L
252.72 70.304 L
266.161 74.889 L
280.26 70.47 L
293.079 58.962 L
300.096 51.165 L
311.551 39.571 L
316.414 36.157 L
320.867 34.319 L
323.771 33.92 L
327.667 34.521 L
331.551 36.544 L
332.422 37.205 L
342.296 50.401 L
345.639 57.321 L
349.345 66.442 L
350.831 70.52 L
351.679 72.952 L
353.872 79.593 L
353.953 79.85 L
355.577 85.096 L
357.149 90.422 L
358.058 93.611 L
359.906 100.327 L
361.135 104.961 L
361.493 106.333 L
363.183 112.963 L
364.028 116.36 L
364.133 116.787 L
365.351 121.792 L
365.478 122.321 L
366.407 126.217 L
S
GR
GS
0.494 0.184 0.557 RC
1 LJ
1.1 LW
N
365.478 122.321 M
366.407 126.217 L
367.635 131.454 L
368.066 133.317 L
368.537 135.366 L
369.364 138.995 L
369.988 141.756 L
370.609 144.53 L
370.764 145.224 L
371.588 148.938 L
371.819 149.986 L
372.006 150.837 L
372.939 155.097 L
373.666 158.445 L
374.026 160.111 L
374.688 163.191 L
375.248 165.805 L
376.078 169.698 L
376.123 169.91 L
376.61 172.207 L
377.386 175.875 L
378.12 179.365 L
378.578 181.544 L
378.993 183.526 L
379.091 183.99 L
379.65 186.666 L
380.096 188.802 L
380.58 191.121 L
381.042 193.337 L
381.172 193.962 L
382.099 198.417 L
382.629 200.967 L
382.983 202.67 L
383.095 203.208 L
383.847 206.822 L
384.015 207.629 L
384.333 209.158 L
384.631 210.589 L
385.404 214.304 L
385.684 215.644 L
386.798 220.978 L
387.146 222.641 L
387.453 224.101 L
387.978 226.604 L
388.204 227.677 L
388.473 228.955 L
389.37 233.201 L
389.586 234.219 L
389.889 235.644 L
390.488 238.459 L
390.806 239.948 L
391.063 241.15 L
S
GR
GS
0.494 0.184 0.557 RC
1 LJ
1.1 LW
N
390.806 239.948 M
391.063 241.15 L
391.337 242.425 L
391.667 243.962 L
392.069 245.828 L
392.254 246.684 L
392.676 248.63 L
393.382 251.874 L
393.845 253.988 L
394.255 255.849 L
394.379 256.413 L
394.57 257.275 L
395.282 260.483 L
395.563 261.74 L
395.645 262.107 L
395.938 263.412 L
396.275 264.908 L
396.884 267.597 L
397.083 268.47 L
397.268 269.282 L
397.754 271.402 L
397.984 272.398 L
398.444 274.385 L
398.749 275.694 L
399.172 277.5 L
399.458 278.711 L
399.793 280.127 L
400.222 281.93 L
400.334 282.397 L
400.493 283.062 L
400.798 284.327 L
400.923 284.842 L
401.184 285.92 L
401.235 286.131 L
401.598 287.617 L
401.837 288.591 L
401.996 289.236 L
402.441 291.032 L
402.633 291.802 L
402.771 292.356 L
403.33 294.573 L
403.667 295.899 L
403.667 295.899 L
403.667 295.899 L
403.718 296.099 L
404.124 297.685 L
404.425 298.851 L
404.856 300.504 L
404.951 300.869 L
405.143 301.599 L
405.166 301.689 L
405.469 302.834 L
S
GR
GS
0.494 0.184 0.557 RC
1 LJ
1.1 LW
N
405.166 301.689 M
405.469 302.834 L
405.875 304.358 L
406.138 305.338 L
406.532 306.792 L
406.813 307.824 L
406.846 307.944 L
407.186 309.179 L
407.893 311.716 L
408.41 313.539 L
408.736 314.679 L
409.238 316.409 L
409.359 316.823 L
410.01 319.026 L
410.357 320.183 L
410.443 320.471 L
411.064 322.506 L
411.308 323.297 L
411.695 324.535 L
412.297 326.436 L
412.588 327.34 L
413.05 328.757 L
413.169 329.122 L
413.473 330.037 L
413.843 331.143 L
414.407 332.796 L
415.045 334.628 L
415.427 335.706 L
415.57 336.104 L
416.206 337.851 L
416.497 338.636 L
417.051 340.104 L
417.787 342.004 L
418.357 343.436 L
418.567 343.953 L
418.926 344.828 L
419.366 345.88 L
419.448 346.073 L
420.036 347.441 L
420.104 347.597 L
420.846 349.26 L
421.01 349.62 L
421.815 351.343 L
422.045 351.82 L
422.466 352.682 L
423.319 354.365 L
423.965 355.585 L
424.479 356.524 L
425.094 357.606 L
425.314 357.983 L
425.727 358.677 L
426.218 359.477 L
S
GR
GS
0.494 0.184 0.557 RC
1 LJ
1.1 LW
N
425.727 358.677 M
426.218 359.477 L
426.563 360.022 L
427.33 361.188 L
427.981 362.127 L
428.868 363.331 L
429.058 363.577 L
429.53 364.173 L
430.297 365.089 L
430.505 365.325 L
431.141 366.022 L
431.373 366.265 L
431.721 366.62 L
432.23 367.115 L
432.857 367.688 L
433.816 368.483 L
434.19 368.768 L
434.723 369.148 L
435.487 369.643 L
436.185 370.045 L
437.042 370.471 L
437.723 370.759 L
438.593 371.063 L
438.686 371.091 L
439.583 371.322 L
440.313 371.455 L
440.572 371.491 L
441.83 371.58 L
442.537 371.57 L
443.288 371.514 L
443.557 371.482 L
444.7 371.284 L
445.238 371.154 L
447.233 370.487 L
447.693 370.292 L
447.952 370.177 L
449.671 369.295 L
450.191 368.991 L
450.451 368.833 L
451.938 367.853 L
452.514 367.44 L
454.069 366.241 L
455.447 365.082 L
455.635 364.918 L
456.394 364.239 L
457.703 363.015 L
459.08 361.666 L
459.189 361.556 L
460.953 359.742 L
461.09 359.598 L
463.039 357.507 L
464.613 355.774 L
S
GR
GS
0.494 0.184 0.557 RC
1 LJ
1.1 LW
N
463.039 357.507 M
464.613 355.774 L
466.701 353.441 L
467.22 352.859 L
470.14 349.588 L
471.131 348.49 L
475.181 344.153 L
494.77 331.044 L
S
GR
GS
0.467 0.675 0.188 RC
1 LJ
1.1 LW
N
73 62.91 M
83.551 61.106 L
85.803 65.539 L
86.668 66.743 L
89.142 68.582 L
92.388 67.807 L
94.496 65.912 L
103.543 55.208 L
130.657 66.289 L
163.423 52.919 L
176.999 55.274 L
183.012 58.983 L
183.939 59.613 L
196.863 67.185 L
203.919 68.553 L
225.396 58.413 L
229.078 55.815 L
238.155 50.874 L
240.159 50.243 L
252.72 51.337 L
266.161 60.844 L
280.26 71.97 L
293.079 74.027 L
300.096 70.172 L
311.551 57.474 L
316.414 50.864 L
320.867 44.971 L
323.771 41.492 L
327.667 37.615 L
331.551 35.003 L
332.422 34.628 L
342.296 37.214 L
345.639 41.41 L
349.345 48.255 L
350.831 51.665 L
351.679 53.782 L
353.872 59.835 L
353.953 60.077 L
355.577 65.114 L
357.149 70.416 L
358.058 73.67 L
359.906 80.699 L
361.135 85.674 L
361.493 87.164 L
363.183 94.469 L
364.028 98.274 L
364.133 98.755 L
365.351 104.437 L
365.478 105.042 L
366.407 109.522 L
S
GR
GS
0.467 0.675 0.188 RC
1 LJ
1.1 LW
N
365.478 105.042 M
366.407 109.522 L
367.635 115.609 L
368.066 117.79 L
368.537 120.199 L
369.364 124.488 L
369.988 127.77 L
370.609 131.084 L
370.764 131.914 L
371.588 136.376 L
371.819 137.64 L
372.006 138.666 L
372.939 143.824 L
373.666 147.898 L
374.026 149.929 L
374.688 153.695 L
375.248 156.9 L
376.078 161.688 L
376.123 161.949 L
376.61 164.781 L
377.386 169.313 L
378.12 173.635 L
378.578 176.335 L
378.993 178.798 L
379.091 179.373 L
379.65 182.699 L
380.096 185.356 L
380.58 188.244 L
381.042 191.004 L
381.172 191.782 L
382.099 197.336 L
382.629 200.516 L
382.983 202.639 L
383.095 203.311 L
383.847 207.817 L
384.015 208.823 L
384.333 210.731 L
384.631 212.514 L
385.404 217.142 L
385.684 218.811 L
386.798 225.445 L
387.146 227.511 L
387.453 229.323 L
387.978 232.427 L
388.204 233.756 L
388.473 235.339 L
389.37 240.587 L
389.586 241.842 L
389.889 243.599 L
390.488 247.061 L
390.806 248.892 L
391.063 250.365 L
S
GR
GS
0.467 0.675 0.188 RC
1 LJ
1.1 LW
N
390.806 248.892 M
391.063 250.365 L
391.337 251.928 L
391.667 253.809 L
392.069 256.089 L
392.254 257.133 L
392.676 259.503 L
393.382 263.444 L
393.845 266.002 L
394.255 268.25 L
394.379 268.929 L
394.57 269.968 L
395.282 273.82 L
395.563 275.324 L
395.645 275.762 L
395.938 277.319 L
396.275 279.101 L
396.884 282.292 L
397.083 283.325 L
397.268 284.283 L
397.754 286.781 L
397.984 287.95 L
398.444 290.276 L
398.749 291.802 L
399.172 293.903 L
399.458 295.307 L
399.793 296.943 L
400.222 299.017 L
400.334 299.554 L
400.493 300.314 L
400.798 301.762 L
400.923 302.349 L
401.184 303.576 L
401.235 303.815 L
401.598 305.501 L
401.837 306.601 L
401.996 307.328 L
402.441 309.344 L
402.633 310.204 L
402.771 310.823 L
403.33 313.287 L
403.667 314.752 L
403.667 314.752 L
403.667 314.752 L
403.718 314.972 L
404.124 316.713 L
404.425 317.988 L
404.856 319.786 L
404.951 320.182 L
405.143 320.971 L
405.166 321.066 L
405.469 322.3 L
S
GR
GS
0.467 0.675 0.188 RC
1 LJ
1.1 LW
N
405.166 321.066 M
405.469 322.3 L
405.875 323.932 L
406.138 324.975 L
406.532 326.516 L
406.813 327.603 L
406.846 327.728 L
407.186 329.021 L
407.893 331.654 L
408.41 333.524 L
408.736 334.684 L
409.238 336.43 L
409.359 336.846 L
410.01 339.037 L
410.357 340.176 L
410.443 340.457 L
411.064 342.435 L
411.308 343.195 L
411.695 344.377 L
412.297 346.168 L
412.588 347.011 L
413.05 348.319 L
413.169 348.653 L
413.473 349.484 L
413.843 350.48 L
414.407 351.949 L
415.045 353.544 L
415.427 354.468 L
415.57 354.805 L
416.206 356.268 L
416.497 356.914 L
417.051 358.103 L
417.787 359.6 L
418.357 360.697 L
418.567 361.087 L
418.926 361.734 L
419.366 362.5 L
419.448 362.638 L
420.036 363.601 L
420.104 363.709 L
420.846 364.83 L
421.01 365.066 L
421.815 366.159 L
422.045 366.451 L
422.466 366.964 L
423.319 367.915 L
423.965 368.556 L
424.479 369.02 L
425.094 369.519 L
425.314 369.684 L
425.727 369.973 L
426.218 370.284 L
S
GR
GS
0.467 0.675 0.188 RC
1 LJ
1.1 LW
N
425.727 369.973 M
426.218 370.284 L
426.563 370.479 L
427.33 370.852 L
427.981 371.102 L
428.868 371.345 L
429.058 371.382 L
429.53 371.455 L
430.297 371.508 L
430.505 371.508 L
431.141 371.477 L
431.373 371.453 L
431.721 371.403 L
432.23 371.305 L
432.857 371.14 L
433.816 370.799 L
434.19 370.637 L
434.723 370.382 L
435.487 369.963 L
436.185 369.528 L
437.042 368.931 L
437.723 368.407 L
438.593 367.68 L
438.686 367.599 L
439.583 366.777 L
440.313 366.064 L
440.572 365.802 L
441.83 364.465 L
442.537 363.672 L
443.288 362.799 L
443.557 362.479 L
444.7 361.084 L
445.238 360.407 L
447.233 357.815 L
447.693 357.202 L
447.952 356.855 L
449.671 354.525 L
450.191 353.814 L
450.451 353.458 L
451.938 351.422 L
452.514 350.636 L
454.069 348.533 L
455.447 346.704 L
455.635 346.459 L
456.394 345.477 L
457.703 343.826 L
459.08 342.157 L
459.189 342.03 L
460.953 340.024 L
461.09 339.875 L
463.039 337.861 L
464.613 336.395 L
S
GR
GS
0.467 0.675 0.188 RC
1 LJ
1.1 LW
N
463.039 337.861 M
464.613 336.395 L
466.701 334.695 L
467.22 334.318 L
470.14 332.552 L
471.131 332.093 L
475.181 330.982 L
494.77 340.195 L
S
GR
GS
0.302 0.745 0.933 RC
1 LJ
1.1 LW
N
73 88.308 M
83.551 62.205 L
85.803 65.787 L
86.668 66.03 L
89.142 64.977 L
92.388 60.596 L
94.496 57.392 L
103.543 54.857 L
130.657 58.865 L
163.423 65.719 L
176.999 63.501 L
183.012 59.181 L
183.939 58.656 L
196.863 53.123 L
203.919 54.339 L
225.396 67.334 L
229.078 68.089 L
238.155 66.795 L
240.159 65.818 L
252.72 56.029 L
266.161 49.588 L
280.26 56.26 L
293.079 68.851 L
300.096 73.778 L
311.551 72.186 L
316.414 67.617 L
320.867 61.277 L
323.771 56.53 L
327.667 50.649 L
331.551 44.246 L
332.422 42.966 L
342.296 33.784 L
345.639 34.12 L
349.345 36.976 L
350.831 39.174 L
351.679 40.825 L
353.872 45.156 L
353.953 45.519 L
355.577 49.7 L
357.149 54.273 L
358.058 57.331 L
359.906 63.886 L
361.135 68.906 L
361.493 70.537 L
363.183 77.923 L
364.028 81.853 L
364.133 82.352 L
365.351 88.465 L
365.478 89.044 L
366.407 94.005 L
S
GR
GS
0.302 0.745 0.933 RC
1 LJ
1.1 LW
N
365.478 89.044 M
366.407 94.005 L
367.635 100.744 L
368.066 103.066 L
368.537 105.798 L
369.364 110.725 L
369.988 114.307 L
370.609 118.275 L
370.764 119.004 L
371.588 124.151 L
371.819 125.85 L
372.006 126.907 L
372.939 133.079 L
373.666 137.711 L
374.026 139.88 L
374.688 144.521 L
375.248 148.194 L
376.078 153.976 L
376.123 154.132 L
376.61 157.708 L
377.386 163.145 L
378.12 168.228 L
378.578 171.311 L
378.993 174.517 L
379.091 175.027 L
379.65 179.015 L
380.096 182.282 L
380.58 185.954 L
381.042 189.138 L
381.172 190.017 L
382.099 196.559 L
382.629 200.508 L
382.983 202.874 L
383.095 203.807 L
383.847 209.295 L
384.015 210.177 L
384.333 212.892 L
384.631 214.839 L
385.404 220.463 L
385.684 222.447 L
386.798 230.415 L
387.146 232.853 L
387.453 235.067 L
387.978 238.628 L
388.204 240.493 L
388.473 242.2 L
389.37 248.51 L
389.586 249.914 L
389.889 252.077 L
390.488 255.949 L
390.806 258.429 L
391.063 259.954 L
S
GR
GS
0.302 0.745 0.933 RC
1 LJ
1.1 LW
N
390.806 258.429 M
391.063 259.954 L
391.337 261.864 L
391.667 264.029 L
392.069 266.584 L
392.254 267.86 L
392.676 270.503 L
393.382 275.111 L
393.845 278.068 L
394.255 280.805 L
394.379 281.304 L
394.57 282.719 L
395.282 286.978 L
395.563 288.796 L
395.645 289.29 L
395.938 290.958 L
396.275 292.99 L
396.884 296.651 L
397.083 297.786 L
397.268 298.749 L
397.754 301.686 L
397.984 302.932 L
398.444 305.41 L
398.749 307.039 L
399.172 309.378 L
399.458 311.04 L
399.793 312.639 L
400.222 314.931 L
400.334 315.518 L
400.493 316.198 L
400.798 317.737 L
400.923 318.513 L
401.184 319.945 L
401.235 319.97 L
401.598 321.912 L
401.837 323.203 L
401.996 323.711 L
402.441 325.765 L
402.633 326.749 L
402.771 327.344 L
403.33 329.844 L
403.667 331.298 L
403.667 331.366 L
403.667 331.289 L
403.718 331.679 L
404.124 333.227 L
404.425 334.516 L
404.856 336.408 L
404.951 336.756 L
405.143 337.595 L
405.166 337.539 L
405.469 338.839 L
S
GR
GS
0.302 0.745 0.933 RC
1 LJ
1.1 LW
N
405.166 337.539 M
405.469 338.839 L
405.875 340.402 L
406.138 341.556 L
406.532 342.901 L
406.813 343.96 L
406.846 344.119 L
407.186 345.234 L
407.893 347.818 L
408.41 349.318 L
408.736 350.39 L
409.238 351.998 L
409.359 352.319 L
410.01 354.356 L
410.357 355.255 L
410.443 355.455 L
411.064 357.007 L
411.308 357.825 L
411.695 358.577 L
412.297 359.968 L
412.588 360.608 L
413.05 361.703 L
413.169 362.104 L
413.473 362.555 L
413.843 363.271 L
414.407 364.274 L
415.045 365.36 L
415.427 365.943 L
415.57 366.203 L
416.206 367.118 L
416.497 367.397 L
417.051 368.13 L
417.787 368.96 L
418.357 369.308 L
418.567 369.667 L
418.926 369.767 L
419.366 369.974 L
419.448 369.934 L
420.036 370.518 L
420.104 370.568 L
420.846 370.634 L
421.01 370.78 L
421.815 370.992 L
422.045 371.027 L
422.466 371.142 L
423.319 371.165 L
423.965 370.826 L
424.479 370.71 L
425.094 370.219 L
425.314 370.139 L
425.727 370.046 L
426.218 369.845 L
S
GR
GS
0.302 0.745 0.933 RC
1 LJ
1.1 LW
N
425.727 370.046 M
426.218 369.845 L
426.563 369.619 L
427.33 369.045 L
427.981 368.606 L
428.868 367.834 L
429.058 367.594 L
429.53 367.253 L
430.297 366.342 L
430.505 365.996 L
431.141 365.329 L
431.373 365.114 L
431.721 364.49 L
432.23 364 L
432.857 363.078 L
433.816 361.805 L
434.19 361.24 L
434.723 360.298 L
435.487 359.385 L
436.185 358.256 L
437.042 357.022 L
437.723 355.817 L
438.593 354.6 L
438.686 354.356 L
439.583 352.987 L
440.313 351.944 L
440.572 351.301 L
441.83 349.263 L
442.537 348.284 L
443.288 347.087 L
443.557 346.853 L
444.7 345.191 L
445.238 344.489 L
447.233 341.665 L
447.693 340.879 L
447.952 340.398 L
449.671 338.312 L
450.191 337.776 L
450.451 337.459 L
451.938 335.881 L
452.514 335.63 L
454.069 334.348 L
455.447 333.337 L
455.635 333.138 L
456.394 332.52 L
457.703 332.197 L
459.08 331.63 L
459.189 331.849 L
460.953 331.496 L
461.09 331.434 L
463.039 331.517 L
464.613 331.904 L
S
GR
GS
0.302 0.745 0.933 RC
1 LJ
1.1 LW
N
463.039 331.517 M
464.613 331.904 L
466.701 332.57 L
467.22 332.882 L
470.14 334.568 L
471.131 335.283 L
475.181 338.625 L
494.77 354.262 L
S
GR
GS
1 GC
N
81.5 368 M
81.5 287 L
243 287 L
243 368 L
cp
f
GR
GS
[1 0 0 1 120.5 296.5] CT
/Helvetica 14 F
GS
[1 0 0 1 0 0] CT
0 3.5 moveto 
1 -1 scale
(Desired Response) t 
GR
GR
GS
1 LJ
2 LW
N
87.5 296.5 M
117.5 296.5 L
S
GR
GS
[1 0 0 1 120.5 312] CT
/Helvetica 14 F
GS
[1 0 0 1 0 0] CT
0 3.5 moveto 
1 -1 scale
(EV K = 8) t 
GR
GR
GS
1 0 1 RC
1 LJ
1.1 LW
N
87.5 312 M
117.5 312 L
S
GR
GS
1 0 1 RC
1 LJ
1.1 LW
N
99 311.5 M
106 311.5 L
S
GR
GS
1 0 1 RC
1 LJ
1.1 LW
N
102.5 315 M
102.5 308 L
S
GR
GS
[1 0 0 1 120.5 327.5] CT
/Helvetica 14 F
GS
[1 0 0 1 0 0] CT
0 3.5 moveto 
1 -1 scale
(FIR K=15) t 
GR
GR
GS
0.494 0.184 0.557 RC
1 LJ
1.1 LW
N
87.5 327.5 M
117.5 327.5 L
S
GR
GS
[1 0 0 1 120.5 343] CT
/Helvetica 14 F
GS
[1 0 0 1 0 0] CT
0 3.5 moveto 
1 -1 scale
(FIR K=20) t 
GR
GR
GS
0.467 0.675 0.188 RC
1 LJ
1.1 LW
N
87.5 343 M
117.5 343 L
S
GR
GS
[1 0 0 1 120.5 358.5] CT
/Helvetica 14 F
GS
[1 0 0 1 0 0] CT
0 3.5 moveto 
1 -1 scale
(FIR K=25) t 
GR
GR
GS
0.302 0.745 0.933 RC
1 LJ
1.1 LW
N
87.5 358.5 M
117.5 358.5 L
S
GR
GS
0.149 GC
10.0 ML
0.5 LW
N
81.5 368 M
81.5 287 L
243 287 L
243 368 L
cp
S
GR
%%Trailer
%%Pages: 1
%%EOF
